128.69.209.169 - - [03/Feb/2018:00:30:33 +0100] "GET / HTTP/1.1" 200 326834 motelavigna.co "http://yandex.ru/clck/jsredir?from=yandex.ru%3Bsearch%3Bweb%3B%3B&text=&etext=1685.CBLJVjONNWfTdEOOd3XGokat6C17DXBDGqqzO0ErqnQ5N9tQCffITrbSPaMAmj3m.bee10f7a709549315cffca6bd6bb112b57b33950&uuid=&state=_BLhILn4SxNIvvL0W45KSic66uCIg23qh8iRG98qeIXmeppkgUc0YD4hgzqAYr5iuWBiLZQy-rY&data=UlNrNmk5WktYejR0eWJFYk1LdmtxczFPV181Nzh5YTVVcUliTVRjN25pWUFlbkZEempHbXREMzk3bTloVENiSnl3MTV4RU5QQkR1cVlXbW54NjE3YjFoeTNEYVhfNXBT&b64e=2&sign=d0428d5bbf5cc6c516f681b865e30286&keyno=0&cst=AiuY0DBWFJ7IXge4WdYJQaYgAYq7JarrDv6IgiM6xlKy0vT7wOMQGi4wQCHO-di0u3z4k5alYMkO7UVwZEYSvlhSCrLgVOz-LGjq3SBa-AwG2MjNF7qM0K5N38-nCFqvWQa_yrvKMiGX-H9ab4X2qZ1vR2bxgG7B&ref=orjY4mGPRjk5boDnW0uvlrrd71vZw9kp5uQozpMtKCWLmUMpz38pRDANYCkHBDdyXzqiDXflg98MsHetrMrmHqweEWWeoSJi71QduBfbpIAAznY-rgdB7g&l10n=ru&cts=1517613865474&mc=2.21174750781" "Mozilla/5.0 (Windows NT 10.0; WOW64) AppleWebKit/537.36 (KHTML, like Gecko) Chrome/64.0.3282.119 Safari/537.36" "-"
128.69.209.169 - - [03/Feb/2018:00:30:35 +0100] "GET /noIndex/files/GallerieAccueil/a3%20-%20SEJOUR%20STUDIO%2016%20(14).jpg HTTP/1.1" 200 43832 motelavigna.co "http://motelavigna.co/" "Mozilla/5.0 (Windows NT 10.0; WOW64) AppleWebKit/537.36 (KHTML, like Gecko) Chrome/64.0.3282.119 Safari/537.36" "-"
128.69.209.169 - - [03/Feb/2018:00:30:35 +0100] "GET /js/library/scrollTo.js HTTP/1.1" 200 2416 motelavigna.co "http://motelavigna.co/" "Mozilla/5.0 (Windows NT 10.0; WOW64) AppleWebKit/537.36 (KHTML, like Gecko) Chrome/64.0.3282.119 Safari/537.36" "-"
128.69.209.169 - - [03/Feb/2018:00:30:35 +0100] "GET /noIndex/files/GallerieAccueil/a3%20-%20SEJOUR%20STUDIO%2016%20(8).jpg HTTP/1.1" 200 109119 motelavigna.co "http://motelavigna.co/" "Mozilla/5.0 (Windows NT 10.0; WOW64) AppleWebKit/537.36 (KHTML, like Gecko) Chrome/64.0.3282.119 Safari/537.36" "-"
128.69.209.169 - - [03/Feb/2018:00:30:35 +0100] "GET /noIndex/files/GallerieAccueil/a3%20-%20SEJOUR%20STUDIO%2016%20(15).jpg HTTP/1.1" 200 42393 motelavigna.co "http://motelavigna.co/" "Mozilla/5.0 (Windows NT 10.0; WOW64) AppleWebKit/537.36 (KHTML, like Gecko) Chrome/64.0.3282.119 Safari/537.36" "-"
128.69.209.169 - - [03/Feb/2018:00:30:35 +0100] "GET /img/cheque.png HTTP/1.1" 200 15471 motelavigna.co "http://motelavigna.co/" "Mozilla/5.0 (Windows NT 10.0; WOW64) AppleWebKit/537.36 (KHTML, like Gecko) Chrome/64.0.3282.119 Safari/537.36" "-"
212.227.24.19 - - [03/Feb/2018:00:30:35 +0100] "GET /noIndex/dynamicJS.php/../Translation.json HTTP/1.1" 200 16664 motelavigna.co "-" "-" "-"
128.69.209.169 - - [03/Feb/2018:00:30:35 +0100] "GET /noIndex/dynamicJS.php HTTP/1.1" 200 16814 motelavigna.co "http://motelavigna.co/" "Mozilla/5.0 (Windows NT 10.0; WOW64) AppleWebKit/537.36 (KHTML, like Gecko) Chrome/64.0.3282.119 Safari/537.36" "-"
128.69.209.169 - - [03/Feb/2018:00:30:35 +0100] "GET /js/index.js HTTP/1.1" 200 6161 motelavigna.co "http://motelavigna.co/" "Mozilla/5.0 (Windows NT 10.0; WOW64) AppleWebKit/537.36 (KHTML, like Gecko) Chrome/64.0.3282.119 Safari/537.36" "-"
128.69.209.169 - - [03/Feb/2018:00:30:35 +0100] "GET /noIndex/files/GallerieAccueil/a3%20-%20SEJOUR%20STUDIO%2016%20(2).jpg HTTP/1.1" 200 91348 motelavigna.co "http://motelavigna.co/" "Mozilla/5.0 (Windows NT 10.0; WOW64) AppleWebKit/537.36 (KHTML, like Gecko) Chrome/64.0.3282.119 Safari/537.36" "-"
128.69.209.169 - - [03/Feb/2018:00:30:35 +0100] "GET /img/routard.jpg HTTP/1.1" 200 21901 motelavigna.co "http://motelavigna.co/" "Mozilla/5.0 (Windows NT 10.0; WOW64) AppleWebKit/537.36 (KHTML, like Gecko) Chrome/64.0.3282.119 Safari/537.36" "-"
128.69.209.169 - - [03/Feb/2018:00:30:35 +0100] "GET /img/lonely.jpg HTTP/1.1" 200 7797 motelavigna.co "http://motelavigna.co/" "Mozilla/5.0 (Windows NT 10.0; WOW64) AppleWebKit/537.36 (KHTML, like Gecko) Chrome/64.0.3282.119 Safari/537.36" "-"
128.69.209.169 - - [03/Feb/2018:00:30:35 +0100] "GET /noIndex/files/GallerieAccueil/a3%20-%20SEJOUR%20STUDIO%2016%20(7).jpg HTTP/1.1" 200 73355 motelavigna.co "http://motelavigna.co/" "Mozilla/5.0 (Windows NT 10.0; WOW64) AppleWebKit/537.36 (KHTML, like Gecko) Chrome/64.0.3282.119 Safari/537.36" "-"
128.69.209.169 - - [03/Feb/2018:00:30:35 +0100] "GET /noIndex/files/GallerieAccueil/7314bc8deced5f2f74ce35d696b3ac49.jpg HTTP/1.1" 200 44113 motelavigna.co "http://motelavigna.co/" "Mozilla/5.0 (Windows NT 10.0; WOW64) AppleWebKit/537.36 (KHTML, like Gecko) Chrome/64.0.3282.119 Safari/537.36" "-"
128.69.209.169 - - [03/Feb/2018:00:30:35 +0100] "GET /js/domManipulation.js HTTP/1.1" 200 8109 motelavigna.co "http://motelavigna.co/" "Mozilla/5.0 (Windows NT 10.0; WOW64) AppleWebKit/537.36 (KHTML, like Gecko) Chrome/64.0.3282.119 Safari/537.36" "-"
128.69.209.169 - - [03/Feb/2018:00:30:35 +0100] "GET /noIndex/files/GallerieAccueil/a3%20-%20SEJOUR%20STUDIO%2016%20(6).jpg HTTP/1.1" 200 89035 motelavigna.co "http://motelavigna.co/" "Mozilla/5.0 (Windows NT 10.0; WOW64) AppleWebKit/537.36 (KHTML, like Gecko) Chrome/64.0.3282.119 Safari/537.36" "-"
128.69.209.169 - - [03/Feb/2018:00:30:35 +0100] "GET /js/utils.js HTTP/1.1" 200 4069 motelavigna.co "http://motelavigna.co/" "Mozilla/5.0 (Windows NT 10.0; WOW64) AppleWebKit/537.36 (KHTML, like Gecko) Chrome/64.0.3282.119 Safari/537.36" "-"
128.69.209.169 - - [03/Feb/2018:00:30:35 +0100] "GET /img/virement.png HTTP/1.1" 200 52840 motelavigna.co "http://motelavigna.co/" "Mozilla/5.0 (Windows NT 10.0; WOW64) AppleWebKit/537.36 (KHTML, like Gecko) Chrome/64.0.3282.119 Safari/537.36" "-"
128.69.209.169 - - [03/Feb/2018:00:30:35 +0100] "GET /noIndex/files/GallerieAccueil/a3%20-%20SEJOUR%20STUDIO%2016%20(9).jpg HTTP/1.1" 200 133336 motelavigna.co "http://motelavigna.co/" "Mozilla/5.0 (Windows NT 10.0; WOW64) AppleWebKit/537.36 (KHTML, like Gecko) Chrome/64.0.3282.119 Safari/537.36" "-"
128.69.209.169 - - [03/Feb/2018:00:30:35 +0100] "GET /img/logo.svg HTTP/1.1" 200 22301 motelavigna.co "http://motelavigna.co/" "Mozilla/5.0 (Windows NT 10.0; WOW64) AppleWebKit/537.36 (KHTML, like Gecko) Chrome/64.0.3282.119 Safari/537.36" "-"
128.69.209.169 - - [03/Feb/2018:00:30:35 +0100] "GET /js/domEvent.js HTTP/1.1" 200 4544 motelavigna.co "http://motelavigna.co/" "Mozilla/5.0 (Windows NT 10.0; WOW64) AppleWebKit/537.36 (KHTML, like Gecko) Chrome/64.0.3282.119 Safari/537.36" "-"
128.69.209.169 - - [03/Feb/2018:00:30:35 +0100] "GET /noIndex/files/GallerieAccueil/a3%20-%20SEJOUR%20STUDIO%2016%20(13).jpg HTTP/1.1" 200 192033 motelavigna.co "http://motelavigna.co/" "Mozilla/5.0 (Windows NT 10.0; WOW64) AppleWebKit/537.36 (KHTML, like Gecko) Chrome/64.0.3282.119 Safari/537.36" "-"
128.69.209.169 - - [03/Feb/2018:00:30:35 +0100] "GET /img/geoguide.jpg HTTP/1.1" 200 72329 motelavigna.co "http://motelavigna.co/" "Mozilla/5.0 (Windows NT 10.0; WOW64) AppleWebKit/537.36 (KHTML, like Gecko) Chrome/64.0.3282.119 Safari/537.36" "-"
128.69.209.169 - - [03/Feb/2018:00:30:35 +0100] "GET /js/library/progressbar.js HTTP/1.1" 200 72956 motelavigna.co "http://motelavigna.co/" "Mozilla/5.0 (Windows NT 10.0; WOW64) AppleWebKit/537.36 (KHTML, like Gecko) Chrome/64.0.3282.119 Safari/537.36" "-"
128.69.209.169 - - [03/Feb/2018:00:30:35 +0100] "GET /noIndex/files/GallerieAccueil/1155412fd29f8c2786c6063493cc0b86.jpg HTTP/1.1" 200 167890 motelavigna.co "http://motelavigna.co/" "Mozilla/5.0 (Windows NT 10.0; WOW64) AppleWebKit/537.36 (KHTML, like Gecko) Chrome/64.0.3282.119 Safari/537.36" "-"
128.69.209.169 - - [03/Feb/2018:00:30:35 +0100] "GET /img/ancv.png HTTP/1.1" 200 217074 motelavigna.co "http://motelavigna.co/" "Mozilla/5.0 (Windows NT 10.0; WOW64) AppleWebKit/537.36 (KHTML, like Gecko) Chrome/64.0.3282.119 Safari/537.36" "-"
128.69.209.169 - - [03/Feb/2018:00:30:35 +0100] "GET /noIndex/files/GallerieAccueil/0a1-%20FACADE%20MOTEL.jpg HTTP/1.1" 200 161415 motelavigna.co "http://motelavigna.co/" "Mozilla/5.0 (Windows NT 10.0; WOW64) AppleWebKit/537.36 (KHTML, like Gecko) Chrome/64.0.3282.119 Safari/537.36" "-"
128.69.209.169 - - [03/Feb/2018:00:30:35 +0100] "GET /noIndex/files/GallerieAccueil/a2%20-%20AIRE%20DE%20JEUX%202.jpg HTTP/1.1" 200 111099 motelavigna.co "http://motelavigna.co/" "Mozilla/5.0 (Windows NT 10.0; WOW64) AppleWebKit/537.36 (KHTML, like Gecko) Chrome/64.0.3282.119 Safari/537.36" "-"
128.69.209.169 - - [03/Feb/2018:00:30:35 +0100] "GET /css/index.css HTTP/1.1" 200 88587 motelavigna.co "http://motelavigna.co/" "Mozilla/5.0 (Windows NT 10.0; WOW64) AppleWebKit/537.36 (KHTML, like Gecko) Chrome/64.0.3282.119 Safari/537.36" "-"
128.69.209.169 - - [03/Feb/2018:00:30:36 +0100] "GET /js/carousel.js HTTP/1.1" 200 3636 motelavigna.co "http://motelavigna.co/" "Mozilla/5.0 (Windows NT 10.0; WOW64) AppleWebKit/537.36 (KHTML, like Gecko) Chrome/64.0.3282.119 Safari/537.36" "-"
128.69.209.169 - - [03/Feb/2018:00:30:36 +0100] "GET /noIndex/files/GallerieAccueil/a3%20-%20SEJOUR%20STUDIO%2016%20(1).jpg HTTP/1.1" 200 69554 motelavigna.co "http://motelavigna.co/" "Mozilla/5.0 (Windows NT 10.0; WOW64) AppleWebKit/537.36 (KHTML, like Gecko) Chrome/64.0.3282.119 Safari/537.36" "-"
128.69.209.169 - - [03/Feb/2018:00:30:36 +0100] "GET /js/library/moment.min.js HTTP/1.1" 200 60580 motelavigna.co "http://motelavigna.co/" "Mozilla/5.0 (Windows NT 10.0; WOW64) AppleWebKit/537.36 (KHTML, like Gecko) Chrome/64.0.3282.119 Safari/537.36" "-"
128.69.209.169 - - [03/Feb/2018:00:30:36 +0100] "GET /noIndex/files/GallerieAccueil/a3%20-%20SEJOUR%20STUDIO%2016%20(5).jpg HTTP/1.1" 200 154308 motelavigna.co "http://motelavigna.co/" "Mozilla/5.0 (Windows NT 10.0; WOW64) AppleWebKit/537.36 (KHTML, like Gecko) Chrome/64.0.3282.119 Safari/537.36" "-"
128.69.209.169 - - [03/Feb/2018:00:30:36 +0100] "GET /noIndex/files/GallerieAccueil/a3%20-%20SEJOUR%20STUDIO%2016%20(11).jpg HTTP/1.1" 200 47637 motelavigna.co "http://motelavigna.co/" "Mozilla/5.0 (Windows NT 10.0; WOW64) AppleWebKit/537.36 (KHTML, like Gecko) Chrome/64.0.3282.119 Safari/537.36" "-"
128.69.209.169 - - [03/Feb/2018:00:30:36 +0100] "GET /noIndex/files/GallerieAccueil/a3%20-%20SEJOUR%20STUDIO%2016%20(4).jpg HTTP/1.1" 200 240890 motelavigna.co "http://motelavigna.co/" "Mozilla/5.0 (Windows NT 10.0; WOW64) AppleWebKit/537.36 (KHTML, like Gecko) Chrome/64.0.3282.119 Safari/537.36" "-"
128.69.209.169 - - [03/Feb/2018:00:30:36 +0100] "GET /js/navigationUrlHistory.js HTTP/1.1" 200 9800 motelavigna.co "http://motelavigna.co/" "Mozilla/5.0 (Windows NT 10.0; WOW64) AppleWebKit/537.36 (KHTML, like Gecko) Chrome/64.0.3282.119 Safari/537.36" "-"
128.69.209.169 - - [03/Feb/2018:00:30:36 +0100] "GET /noIndex/files/GallerieAccueil/a3%20-%20SEJOUR%20STUDIO%2016%20(12).jpg HTTP/1.1" 200 35239 motelavigna.co "http://motelavigna.co/" "Mozilla/5.0 (Windows NT 10.0; WOW64) AppleWebKit/537.36 (KHTML, like Gecko) Chrome/64.0.3282.119 Safari/537.36" "-"
128.69.209.169 - - [03/Feb/2018:00:30:36 +0100] "GET /noIndex/files/GallerieAccueil/a3%20-%20SEJOUR%20STUDIO%2016%20(10).jpg HTTP/1.1" 200 9294 motelavigna.co "http://motelavigna.co/" "Mozilla/5.0 (Windows NT 10.0; WOW64) AppleWebKit/537.36 (KHTML, like Gecko) Chrome/64.0.3282.119 Safari/537.36" "-"
128.69.209.169 - - [03/Feb/2018:00:30:36 +0100] "GET /fonts/fonts.css HTTP/1.1" 200 2253 motelavigna.co "http://motelavigna.co/" "Mozilla/5.0 (Windows NT 10.0; WOW64) AppleWebKit/537.36 (KHTML, like Gecko) Chrome/64.0.3282.119 Safari/537.36" "-"
128.69.209.169 - - [03/Feb/2018:00:30:37 +0100] "GET /img/vigne_1.jpg HTTP/1.1" 200 123730 motelavigna.co "http://motelavigna.co/" "Mozilla/5.0 (Windows NT 10.0; WOW64) AppleWebKit/537.36 (KHTML, like Gecko) Chrome/64.0.3282.119 Safari/537.36" "-"
128.69.209.169 - - [03/Feb/2018:00:30:41 +0100] "GET /js/cuppa-calendarFORK.js HTTP/1.1" 200 25661 motelavigna.co "http://motelavigna.co/fr/home" "Mozilla/5.0 (Windows NT 10.0; WOW64) AppleWebKit/537.36 (KHTML, like Gecko) Chrome/64.0.3282.119 Safari/537.36" "-"
128.69.209.169 - - [03/Feb/2018:00:30:45 +0100] "GET /noIndex/tripAdvisor.html HTTP/1.1" 200 1878 motelavigna.co "http://motelavigna.co/fr/home" "Mozilla/5.0 (Windows NT 10.0; WOW64) AppleWebKit/537.36 (KHTML, like Gecko) Chrome/64.0.3282.119 Safari/537.36" "-"
128.69.209.169 - - [03/Feb/2018:00:30:45 +0100] "GET /noIndex/map.html HTTP/1.1" 200 2219 motelavigna.co "http://motelavigna.co/fr/home" "Mozilla/5.0 (Windows NT 10.0; WOW64) AppleWebKit/537.36 (KHTML, like Gecko) Chrome/64.0.3282.119 Safari/537.36" "-"
128.69.209.169 - - [03/Feb/2018:00:30:47 +0100] "GET /img/qrcode.png HTTP/1.1" 200 396 motelavigna.co "http://motelavigna.co/noIndex/map.html" "Mozilla/5.0 (Windows NT 10.0; WOW64) AppleWebKit/537.36 (KHTML, like Gecko) Chrome/64.0.3282.119 Safari/537.36" "-"
51.255.71.125 - - [03/Feb/2018:00:47:31 +0100] "GET /en/carouselPlanning HTTP/1.1" 200 291502 motelavigna.co "-" "Mozilla/5.0 (compatible; AhrefsBot/5.2; +http://ahrefs.com/robot/)" "-"
66.249.66.9 - - [03/Feb/2018:01:31:52 +0100] "GET /en/book HTTP/1.1" 200 12812 motelavigna.co "-" "Mozilla/5.0 (compatible; Googlebot/2.1; +http://www.google.com/bot.html)" "-"
66.249.66.9 - - [03/Feb/2018:01:33:52 +0100] "GET /fr/book HTTP/1.1" 200 12838 motelavigna.co "-" "Mozilla/5.0 (compatible; Googlebot/2.1; +http://www.google.com/bot.html)" "-"
66.249.66.9 - - [03/Feb/2018:04:33:00 +0100] "GET /fr/book HTTP/1.1" 200 12838 motelavigna.co "-" "Mozilla/5.0 (compatible; Googlebot/2.1; +http://www.google.com/bot.html)" "-"
66.249.66.5 - - [03/Feb/2018:04:33:24 +0100] "GET /en/book HTTP/1.1" 200 12812 motelavigna.co "-" "Mozilla/5.0 (compatible; Googlebot/2.1; +http://www.google.com/bot.html)" "-"
66.249.66.5 - - [03/Feb/2018:07:37:04 +0100] "GET /en/book HTTP/1.1" 200 12812 motelavigna.co "-" "Mozilla/5.0 (compatible; Googlebot/2.1; +http://www.google.com/bot.html)" "-"
66.249.66.7 - - [03/Feb/2018:08:41:55 +0100] "GET / HTTP/1.1" 200 326834 motelavigna.co "-" "Mozilla/5.0 (Linux; Android 6.0.1; Nexus 5X Build/MMB29P) AppleWebKit/537.36 (KHTML, like Gecko) Chrome/41.0.2272.96 Mobile Safari/537.36 (compatible; Googlebot/2.1; +http://www.google.com/bot.html)" "-"
66.249.66.7 - - [03/Feb/2018:10:10:18 +0100] "GET / HTTP/1.1" 200 326834 motelavigna.co "-" "Mozilla/5.0 (Linux; Android 6.0.1; Nexus 5X Build/MMB29P) AppleWebKit/537.36 (KHTML, like Gecko) Chrome/41.0.2272.96 Mobile Safari/537.36 (compatible; Googlebot/2.1; +http://www.google.com/bot.html)" "-"
66.249.66.7 - - [03/Feb/2018:11:34:32 +0100] "GET /en/book HTTP/1.1" 200 12812 motelavigna.co "-" "Mozilla/5.0 (compatible; Googlebot/2.1; +http://www.google.com/bot.html)" "-"
66.249.66.7 - - [03/Feb/2018:11:42:19 +0100] "GET /fr/book HTTP/1.1" 200 12838 motelavigna.co "-" "Mozilla/5.0 (compatible; Googlebot/2.1; +http://www.google.com/bot.html)" "-"
66.249.66.5 - - [03/Feb/2018:11:52:17 +0100] "GET / HTTP/1.1" 200 326834 motelavigna.co "-" "Mozilla/5.0 (Linux; Android 6.0.1; Nexus 5X Build/MMB29P) AppleWebKit/537.36 (KHTML, like Gecko) Chrome/41.0.2272.96 Mobile Safari/537.36 (compatible; Googlebot/2.1; +http://www.google.com/bot.html)" "-"
66.249.66.9 - - [03/Feb/2018:13:31:40 +0100] "GET / HTTP/1.1" 200 326834 motelavigna.co "-" "Mozilla/5.0 (Linux; Android 6.0.1; Nexus 5X Build/MMB29P) AppleWebKit/537.36 (KHTML, like Gecko) Chrome/41.0.2272.96 Mobile Safari/537.36 (compatible; Googlebot/2.1; +http://www.google.com/bot.html)" "-"
66.249.66.9 - - [03/Feb/2018:13:38:18 +0100] "GET / HTTP/1.1" 200 326834 motelavigna.co "-" "Mozilla/5.0 (compatible; Googlebot/2.1; +http://www.google.com/bot.html)" "-"
66.249.66.7 - - [03/Feb/2018:13:38:46 +0100] "GET / HTTP/1.1" 200 326834 motelavigna.co "-" "Mozilla/5.0 (compatible; Googlebot/2.1; +http://www.google.com/bot.html)" "-"
66.249.66.5 - - [03/Feb/2018:15:09:13 +0100] "GET / HTTP/1.1" 200 326834 motelavigna.co "-" "Mozilla/5.0 (Linux; Android 6.0.1; Nexus 5X Build/MMB29P) AppleWebKit/537.36 (KHTML, like Gecko) Chrome/41.0.2272.96 Mobile Safari/537.36 (compatible; Googlebot/2.1; +http://www.google.com/bot.html)" "-"
66.249.66.7 - - [03/Feb/2018:15:15:13 +0100] "GET /fr/book HTTP/1.1" 200 12838 motelavigna.co "-" "Mozilla/5.0 (compatible; Googlebot/2.1; +http://www.google.com/bot.html)" "-"
66.249.66.7 - - [03/Feb/2018:15:23:00 +0100] "GET /en/book HTTP/1.1" 200 12812 motelavigna.co "-" "Mozilla/5.0 (compatible; Googlebot/2.1; +http://www.google.com/bot.html)" "-"
66.249.66.5 - - [03/Feb/2018:16:39:33 +0100] "GET / HTTP/1.1" 200 326834 motelavigna.co "-" "Mozilla/5.0 (Linux; Android 6.0.1; Nexus 5X Build/MMB29P) AppleWebKit/537.36 (KHTML, like Gecko) Chrome/41.0.2272.96 Mobile Safari/537.36 (compatible; Googlebot/2.1; +http://www.google.com/bot.html)" "-"
93.2.58.13 - - [03/Feb/2018:17:15:22 +0100] "GET / HTTP/1.1" 200 326834 motelavigna.co "http://www.restonicatrail.fr/index.php?option=com_content&view=article&id=122&Itemid=167" "Mozilla/5.0 (Windows NT 6.1; WOW64) AppleWebKit/537.36 (KHTML, like Gecko) Chrome/54.0.2840.59 Safari/537.36" "-"
93.2.58.13 - - [03/Feb/2018:17:15:23 +0100] "GET /css/index.css HTTP/1.1" 200 88587 motelavigna.co "http://motelavigna.co/" "Mozilla/5.0 (Windows NT 6.1; WOW64) AppleWebKit/537.36 (KHTML, like Gecko) Chrome/54.0.2840.59 Safari/537.36" "-"
93.2.58.13 - - [03/Feb/2018:17:15:23 +0100] "GET /fonts/fonts.css HTTP/1.1" 200 2253 motelavigna.co "http://motelavigna.co/" "Mozilla/5.0 (Windows NT 6.1; WOW64) AppleWebKit/537.36 (KHTML, like Gecko) Chrome/54.0.2840.59 Safari/537.36" "-"
93.2.58.13 - - [03/Feb/2018:17:15:23 +0100] "GET /js/index.js HTTP/1.1" 200 6161 motelavigna.co "http://motelavigna.co/" "Mozilla/5.0 (Windows NT 6.1; WOW64) AppleWebKit/537.36 (KHTML, like Gecko) Chrome/54.0.2840.59 Safari/537.36" "-"
93.2.58.13 - - [03/Feb/2018:17:15:23 +0100] "GET /js/utils.js HTTP/1.1" 200 4069 motelavigna.co "http://motelavigna.co/" "Mozilla/5.0 (Windows NT 6.1; WOW64) AppleWebKit/537.36 (KHTML, like Gecko) Chrome/54.0.2840.59 Safari/537.36" "-"
93.2.58.13 - - [03/Feb/2018:17:15:23 +0100] "GET /js/navigationUrlHistory.js HTTP/1.1" 200 9800 motelavigna.co "http://motelavigna.co/" "Mozilla/5.0 (Windows NT 6.1; WOW64) AppleWebKit/537.36 (KHTML, like Gecko) Chrome/54.0.2840.59 Safari/537.36" "-"
93.2.58.13 - - [03/Feb/2018:17:15:23 +0100] "GET /js/domManipulation.js HTTP/1.1" 200 8109 motelavigna.co "http://motelavigna.co/" "Mozilla/5.0 (Windows NT 6.1; WOW64) AppleWebKit/537.36 (KHTML, like Gecko) Chrome/54.0.2840.59 Safari/537.36" "-"
212.227.24.19 - - [03/Feb/2018:17:15:23 +0100] "GET /noIndex/dynamicJS.php/../Translation.json HTTP/1.1" 200 16664 motelavigna.co "-" "-" "-"
93.2.58.13 - - [03/Feb/2018:17:15:23 +0100] "GET /noIndex/dynamicJS.php HTTP/1.1" 200 16814 motelavigna.co "http://motelavigna.co/" "Mozilla/5.0 (Windows NT 6.1; WOW64) AppleWebKit/537.36 (KHTML, like Gecko) Chrome/54.0.2840.59 Safari/537.36" "-"
93.2.58.13 - - [03/Feb/2018:17:15:23 +0100] "GET /js/domEvent.js HTTP/1.1" 200 4544 motelavigna.co "http://motelavigna.co/" "Mozilla/5.0 (Windows NT 6.1; WOW64) AppleWebKit/537.36 (KHTML, like Gecko) Chrome/54.0.2840.59 Safari/537.36" "-"
93.2.58.13 - - [03/Feb/2018:17:15:23 +0100] "GET /js/library/moment.min.js HTTP/1.1" 200 60580 motelavigna.co "http://motelavigna.co/" "Mozilla/5.0 (Windows NT 6.1; WOW64) AppleWebKit/537.36 (KHTML, like Gecko) Chrome/54.0.2840.59 Safari/537.36" "-"
93.2.58.13 - - [03/Feb/2018:17:15:23 +0100] "GET /js/carousel.js HTTP/1.1" 200 3636 motelavigna.co "http://motelavigna.co/" "Mozilla/5.0 (Windows NT 6.1; WOW64) AppleWebKit/537.36 (KHTML, like Gecko) Chrome/54.0.2840.59 Safari/537.36" "-"
93.2.58.13 - - [03/Feb/2018:17:15:23 +0100] "GET /js/library/scrollTo.js HTTP/1.1" 200 2416 motelavigna.co "http://motelavigna.co/" "Mozilla/5.0 (Windows NT 6.1; WOW64) AppleWebKit/537.36 (KHTML, like Gecko) Chrome/54.0.2840.59 Safari/537.36" "-"
93.2.58.13 - - [03/Feb/2018:17:15:23 +0100] "GET /js/library/progressbar.js HTTP/1.1" 200 72956 motelavigna.co "http://motelavigna.co/" "Mozilla/5.0 (Windows NT 6.1; WOW64) AppleWebKit/537.36 (KHTML, like Gecko) Chrome/54.0.2840.59 Safari/537.36" "-"
93.2.58.13 - - [03/Feb/2018:17:15:23 +0100] "GET /img/logo.svg HTTP/1.1" 200 22301 motelavigna.co "http://motelavigna.co/" "Mozilla/5.0 (Windows NT 6.1; WOW64) AppleWebKit/537.36 (KHTML, like Gecko) Chrome/54.0.2840.59 Safari/537.36" "-"
93.2.58.13 - - [03/Feb/2018:17:15:23 +0100] "GET /img/vigne_1.jpg HTTP/1.1" 200 123730 motelavigna.co "http://motelavigna.co/css/index.css" "Mozilla/5.0 (Windows NT 6.1; WOW64) AppleWebKit/537.36 (KHTML, like Gecko) Chrome/54.0.2840.59 Safari/537.36" "-"
93.2.58.13 - - [03/Feb/2018:17:15:23 +0100] "GET /noIndex/files/GallerieAccueil/0a1-%20FACADE%20MOTEL.jpg HTTP/1.1" 200 161415 motelavigna.co "http://motelavigna.co/" "Mozilla/5.0 (Windows NT 6.1; WOW64) AppleWebKit/537.36 (KHTML, like Gecko) Chrome/54.0.2840.59 Safari/537.36" "-"
93.2.58.13 - - [03/Feb/2018:17:15:23 +0100] "GET /noIndex/files/GallerieAccueil/1155412fd29f8c2786c6063493cc0b86.jpg HTTP/1.1" 200 167890 motelavigna.co "http://motelavigna.co/" "Mozilla/5.0 (Windows NT 6.1; WOW64) AppleWebKit/537.36 (KHTML, like Gecko) Chrome/54.0.2840.59 Safari/537.36" "-"
93.2.58.13 - - [03/Feb/2018:17:15:23 +0100] "GET /noIndex/files/GallerieAccueil/7314bc8deced5f2f74ce35d696b3ac49.jpg HTTP/1.1" 200 44113 motelavigna.co "http://motelavigna.co/" "Mozilla/5.0 (Windows NT 6.1; WOW64) AppleWebKit/537.36 (KHTML, like Gecko) Chrome/54.0.2840.59 Safari/537.36" "-"
93.2.58.13 - - [03/Feb/2018:17:15:24 +0100] "GET /noIndex/files/GallerieAccueil/a2%20-%20AIRE%20DE%20JEUX%202.jpg HTTP/1.1" 200 111099 motelavigna.co "http://motelavigna.co/" "Mozilla/5.0 (Windows NT 6.1; WOW64) AppleWebKit/537.36 (KHTML, like Gecko) Chrome/54.0.2840.59 Safari/537.36" "-"
93.2.58.13 - - [03/Feb/2018:17:15:24 +0100] "GET /noIndex/files/GallerieAccueil/a3%20-%20SEJOUR%20STUDIO%2016%20(1).jpg HTTP/1.1" 200 69554 motelavigna.co "http://motelavigna.co/" "Mozilla/5.0 (Windows NT 6.1; WOW64) AppleWebKit/537.36 (KHTML, like Gecko) Chrome/54.0.2840.59 Safari/537.36" "-"
93.2.58.13 - - [03/Feb/2018:17:15:25 +0100] "GET /fonts/fontawesome-webfont.woff2?v=4.7.0 HTTP/1.1" 200 77160 motelavigna.co "http://motelavigna.co/css/index.css" "Mozilla/5.0 (Windows NT 6.1; WOW64) AppleWebKit/537.36 (KHTML, like Gecko) Chrome/54.0.2840.59 Safari/537.36" "-"
93.2.58.13 - - [03/Feb/2018:17:15:25 +0100] "GET /noIndex/files/GallerieAccueil/a3%20-%20SEJOUR%20STUDIO%2016%20(5).jpg HTTP/1.1" 200 154308 motelavigna.co "http://motelavigna.co/" "Mozilla/5.0 (Windows NT 6.1; WOW64) AppleWebKit/537.36 (KHTML, like Gecko) Chrome/54.0.2840.59 Safari/537.36" "-"
93.2.58.13 - - [03/Feb/2018:17:15:25 +0100] "GET /noIndex/files/GallerieAccueil/a3%20-%20SEJOUR%20STUDIO%2016%20(8).jpg HTTP/1.1" 200 109119 motelavigna.co "http://motelavigna.co/" "Mozilla/5.0 (Windows NT 6.1; WOW64) AppleWebKit/537.36 (KHTML, like Gecko) Chrome/54.0.2840.59 Safari/537.36" "-"
93.2.58.13 - - [03/Feb/2018:17:15:26 +0100] "GET /noIndex/files/GallerieAccueil/a3%20-%20SEJOUR%20STUDIO%2016%20(10).jpg HTTP/1.1" 200 9294 motelavigna.co "http://motelavigna.co/" "Mozilla/5.0 (Windows NT 6.1; WOW64) AppleWebKit/537.36 (KHTML, like Gecko) Chrome/54.0.2840.59 Safari/537.36" "-"
93.2.58.13 - - [03/Feb/2018:17:15:26 +0100] "GET /noIndex/files/GallerieAccueil/a3%20-%20SEJOUR%20STUDIO%2016%20(15).jpg HTTP/1.1" 200 42393 motelavigna.co "http://motelavigna.co/" "Mozilla/5.0 (Windows NT 6.1; WOW64) AppleWebKit/537.36 (KHTML, like Gecko) Chrome/54.0.2840.59 Safari/537.36" "-"
93.2.58.13 - - [03/Feb/2018:17:15:26 +0100] "GET /noIndex/files/GallerieAccueil/a3%20-%20SEJOUR%20STUDIO%2016%20(9).jpg HTTP/1.1" 200 133336 motelavigna.co "http://motelavigna.co/" "Mozilla/5.0 (Windows NT 6.1; WOW64) AppleWebKit/537.36 (KHTML, like Gecko) Chrome/54.0.2840.59 Safari/537.36" "-"
93.2.58.13 - - [03/Feb/2018:17:15:26 +0100] "GET /noIndex/files/GallerieAccueil/a3%20-%20SEJOUR%20STUDIO%2016%20(6).jpg HTTP/1.1" 200 89035 motelavigna.co "http://motelavigna.co/" "Mozilla/5.0 (Windows NT 6.1; WOW64) AppleWebKit/537.36 (KHTML, like Gecko) Chrome/54.0.2840.59 Safari/537.36" "-"
93.2.58.13 - - [03/Feb/2018:17:15:27 +0100] "GET /noIndex/files/GallerieAccueil/a3%20-%20SEJOUR%20STUDIO%2016%20(7).jpg HTTP/1.1" 200 73355 motelavigna.co "http://motelavigna.co/" "Mozilla/5.0 (Windows NT 6.1; WOW64) AppleWebKit/537.36 (KHTML, like Gecko) Chrome/54.0.2840.59 Safari/537.36" "-"
93.2.58.13 - - [03/Feb/2018:17:15:27 +0100] "GET /noIndex/files/GallerieAccueil/a3%20-%20SEJOUR%20STUDIO%2016%20(2).jpg HTTP/1.1" 200 91348 motelavigna.co "http://motelavigna.co/" "Mozilla/5.0 (Windows NT 6.1; WOW64) AppleWebKit/537.36 (KHTML, like Gecko) Chrome/54.0.2840.59 Safari/537.36" "-"
93.2.58.13 - - [03/Feb/2018:17:15:27 +0100] "GET /noIndex/files/GallerieAccueil/a3%20-%20SEJOUR%20STUDIO%2016%20(12).jpg HTTP/1.1" 200 35239 motelavigna.co "http://motelavigna.co/" "Mozilla/5.0 (Windows NT 6.1; WOW64) AppleWebKit/537.36 (KHTML, like Gecko) Chrome/54.0.2840.59 Safari/537.36" "-"
93.2.58.13 - - [03/Feb/2018:17:15:27 +0100] "GET /noIndex/files/GallerieAccueil/a3%20-%20SEJOUR%20STUDIO%2016%20(13).jpg HTTP/1.1" 200 192033 motelavigna.co "http://motelavigna.co/" "Mozilla/5.0 (Windows NT 6.1; WOW64) AppleWebKit/537.36 (KHTML, like Gecko) Chrome/54.0.2840.59 Safari/537.36" "-"
93.2.58.13 - - [03/Feb/2018:17:15:27 +0100] "GET /noIndex/files/GallerieAccueil/a3%20-%20SEJOUR%20STUDIO%2016%20(11).jpg HTTP/1.1" 200 47637 motelavigna.co "http://motelavigna.co/" "Mozilla/5.0 (Windows NT 6.1; WOW64) AppleWebKit/537.36 (KHTML, like Gecko) Chrome/54.0.2840.59 Safari/537.36" "-"
93.2.58.13 - - [03/Feb/2018:17:15:28 +0100] "GET /noIndex/files/GallerieAccueil/a3%20-%20SEJOUR%20STUDIO%2016%20(4).jpg HTTP/1.1" 200 240890 motelavigna.co "http://motelavigna.co/" "Mozilla/5.0 (Windows NT 6.1; WOW64) AppleWebKit/537.36 (KHTML, like Gecko) Chrome/54.0.2840.59 Safari/537.36" "-"
93.2.58.13 - - [03/Feb/2018:17:15:28 +0100] "GET /noIndex/files/GallerieAccueil/a3%20-%20SEJOUR%20STUDIO%2016%20(14).jpg HTTP/1.1" 200 43832 motelavigna.co "http://motelavigna.co/" "Mozilla/5.0 (Windows NT 6.1; WOW64) AppleWebKit/537.36 (KHTML, like Gecko) Chrome/54.0.2840.59 Safari/537.36" "-"
93.2.58.13 - - [03/Feb/2018:17:15:28 +0100] "GET /js/cuppa-calendarFORK.js HTTP/1.1" 200 25661 motelavigna.co "http://motelavigna.co/fr/home" "Mozilla/5.0 (Windows NT 6.1; WOW64) AppleWebKit/537.36 (KHTML, like Gecko) Chrome/54.0.2840.59 Safari/537.36" "-"
93.2.58.13 - - [03/Feb/2018:17:15:28 +0100] "GET /img/ancv.png HTTP/1.1" 200 217074 motelavigna.co "http://motelavigna.co/" "Mozilla/5.0 (Windows NT 6.1; WOW64) AppleWebKit/537.36 (KHTML, like Gecko) Chrome/54.0.2840.59 Safari/537.36" "-"
93.2.58.13 - - [03/Feb/2018:17:15:29 +0100] "GET /img/virement.png HTTP/1.1" 200 52840 motelavigna.co "http://motelavigna.co/" "Mozilla/5.0 (Windows NT 6.1; WOW64) AppleWebKit/537.36 (KHTML, like Gecko) Chrome/54.0.2840.59 Safari/537.36" "-"
93.2.58.13 - - [03/Feb/2018:17:15:29 +0100] "GET /img/cheque.png HTTP/1.1" 200 15471 motelavigna.co "http://motelavigna.co/" "Mozilla/5.0 (Windows NT 6.1; WOW64) AppleWebKit/537.36 (KHTML, like Gecko) Chrome/54.0.2840.59 Safari/537.36" "-"
93.2.58.13 - - [03/Feb/2018:17:15:29 +0100] "GET /img/geoguide.jpg HTTP/1.1" 200 72329 motelavigna.co "http://motelavigna.co/" "Mozilla/5.0 (Windows NT 6.1; WOW64) AppleWebKit/537.36 (KHTML, like Gecko) Chrome/54.0.2840.59 Safari/537.36" "-"
93.2.58.13 - - [03/Feb/2018:17:15:30 +0100] "GET /img/lonely.jpg HTTP/1.1" 200 7797 motelavigna.co "http://motelavigna.co/" "Mozilla/5.0 (Windows NT 6.1; WOW64) AppleWebKit/537.36 (KHTML, like Gecko) Chrome/54.0.2840.59 Safari/537.36" "-"
93.2.58.13 - - [03/Feb/2018:17:15:30 +0100] "GET /img/routard.jpg HTTP/1.1" 200 21901 motelavigna.co "http://motelavigna.co/" "Mozilla/5.0 (Windows NT 6.1; WOW64) AppleWebKit/537.36 (KHTML, like Gecko) Chrome/54.0.2840.59 Safari/537.36" "-"
93.2.58.13 - - [03/Feb/2018:17:15:31 +0100] "GET /noIndex/tripAdvisor.html HTTP/1.1" 200 1878 motelavigna.co "http://motelavigna.co/fr/home" "Mozilla/5.0 (Windows NT 6.1; WOW64) AppleWebKit/537.36 (KHTML, like Gecko) Chrome/54.0.2840.59 Safari/537.36" "-"
93.2.58.13 - - [03/Feb/2018:17:15:31 +0100] "GET /noIndex/map.html HTTP/1.1" 200 2219 motelavigna.co "http://motelavigna.co/fr/home" "Mozilla/5.0 (Windows NT 6.1; WOW64) AppleWebKit/537.36 (KHTML, like Gecko) Chrome/54.0.2840.59 Safari/537.36" "-"
93.2.58.13 - - [03/Feb/2018:17:15:31 +0100] "GET /img/qrcode.png HTTP/1.1" 200 396 motelavigna.co "http://motelavigna.co/noIndex/map.html" "Mozilla/5.0 (Windows NT 6.1; WOW64) AppleWebKit/537.36 (KHTML, like Gecko) Chrome/54.0.2840.59 Safari/537.36" "-"
93.2.58.13 - - [03/Feb/2018:17:15:36 +0100] "GET /img/favicon.png HTTP/1.1" 200 5612 motelavigna.co "http://motelavigna.co/fr/home" "Mozilla/5.0 (Windows NT 6.1; WOW64) AppleWebKit/537.36 (KHTML, like Gecko) Chrome/54.0.2840.59 Safari/537.36" "-"
93.2.58.13 - - [03/Feb/2018:17:15:43 +0100] "POST /fr/activity HTTP/1.1" 200 13245 motelavigna.co "http://motelavigna.co/fr/home" "Mozilla/5.0 (Windows NT 6.1; WOW64) AppleWebKit/537.36 (KHTML, like Gecko) Chrome/54.0.2840.59 Safari/537.36" "-"
93.2.58.13 - - [03/Feb/2018:17:15:44 +0100] "GET /img/ancienFiltre1.jpg HTTP/1.1" 200 68507 motelavigna.co "http://motelavigna.co/fr/activity" "Mozilla/5.0 (Windows NT 6.1; WOW64) AppleWebKit/537.36 (KHTML, like Gecko) Chrome/54.0.2840.59 Safari/537.36" "-"
93.2.58.13 - - [03/Feb/2018:17:15:44 +0100] "GET /img/ancienFiltre2.jpg HTTP/1.1" 200 64751 motelavigna.co "http://motelavigna.co/fr/activity" "Mozilla/5.0 (Windows NT 6.1; WOW64) AppleWebKit/537.36 (KHTML, like Gecko) Chrome/54.0.2840.59 Safari/537.36" "-"
93.2.58.13 - - [03/Feb/2018:17:15:44 +0100] "GET /img/nino.jpg HTTP/1.1" 200 255606 motelavigna.co "http://motelavigna.co/fr/activity" "Mozilla/5.0 (Windows NT 6.1; WOW64) AppleWebKit/537.36 (KHTML, like Gecko) Chrome/54.0.2840.59 Safari/537.36" "-"
93.2.58.13 - - [03/Feb/2018:17:15:44 +0100] "GET /img/arche.jpg HTTP/1.1" 200 165454 motelavigna.co "http://motelavigna.co/fr/activity" "Mozilla/5.0 (Windows NT 6.1; WOW64) AppleWebKit/537.36 (KHTML, like Gecko) Chrome/54.0.2840.59 Safari/537.36" "-"
93.2.58.13 - - [03/Feb/2018:17:15:44 +0100] "GET /img/terraCorsa.jpg HTTP/1.1" 200 88183 motelavigna.co "http://motelavigna.co/fr/activity" "Mozilla/5.0 (Windows NT 6.1; WOW64) AppleWebKit/537.36 (KHTML, like Gecko) Chrome/54.0.2840.59 Safari/537.36" "-"
93.2.58.13 - - [03/Feb/2018:17:15:44 +0100] "GET /img/citadelle.jpg HTTP/1.1" 200 44312 motelavigna.co "http://motelavigna.co/fr/activity" "Mozilla/5.0 (Windows NT 6.1; WOW64) AppleWebKit/537.36 (KHTML, like Gecko) Chrome/54.0.2840.59 Safari/537.36" "-"
93.2.58.13 - - [03/Feb/2018:17:15:53 +0100] "POST /fr/book HTTP/1.1" 200 4628 motelavigna.co "http://motelavigna.co/fr/activity" "Mozilla/5.0 (Windows NT 6.1; WOW64) AppleWebKit/537.36 (KHTML, like Gecko) Chrome/54.0.2840.59 Safari/537.36" "-"
93.2.58.13 - - [03/Feb/2018:17:16:23 +0100] "POST /fr/book HTTP/1.1" 200 8210 motelavigna.co "http://motelavigna.co/fr/book" "Mozilla/5.0 (Windows NT 6.1; WOW64) AppleWebKit/537.36 (KHTML, like Gecko) Chrome/54.0.2840.59 Safari/537.36" "-"
93.2.58.13 - - [03/Feb/2018:17:16:23 +0100] "GET /js/pages/book.js HTTP/1.1" 200 1625 motelavigna.co "http://motelavigna.co/fr/book" "Mozilla/5.0 (Windows NT 6.1; WOW64) AppleWebKit/537.36 (KHTML, like Gecko) Chrome/54.0.2840.59 Safari/537.36" "-"
93.2.58.13 - - [03/Feb/2018:17:16:37 +0100] "POST /fr/getPrice.php HTTP/1.1" 200 23 motelavigna.co "http://motelavigna.co/fr/book" "Mozilla/5.0 (Windows NT 6.1; WOW64) AppleWebKit/537.36 (KHTML, like Gecko) Chrome/54.0.2840.59 Safari/537.36" "-"
66.249.66.9 - - [03/Feb/2018:18:13:48 +0100] "GET / HTTP/1.1" 200 326834 motelavigna.co "-" "Mozilla/5.0 (Linux; Android 6.0.1; Nexus 5X Build/MMB29P) AppleWebKit/537.36 (KHTML, like Gecko) Chrome/41.0.2272.96 Mobile Safari/537.36 (compatible; Googlebot/2.1; +http://www.google.com/bot.html)" "-"
2a01:cb08:355:ea00:d82c:4e9b:42c3:f7d - - [03/Feb/2018:18:44:24 +0100] "GET /fr/activity HTTP/1.1" 200 21479 motelavigna.co "https://www.google.fr/" "Mozilla/5.0 (Windows NT 6.3; Win64; x64; rv:58.0) Gecko/20100101 Firefox/58.0" "-"
2a01:cb08:355:ea00:d82c:4e9b:42c3:f7d - - [03/Feb/2018:18:44:24 +0100] "GET /css/index.css HTTP/1.1" 200 88587 motelavigna.co "http://motelavigna.co/fr/activity" "Mozilla/5.0 (Windows NT 6.3; Win64; x64; rv:58.0) Gecko/20100101 Firefox/58.0" "-"
2a01:cb08:355:ea00:d82c:4e9b:42c3:f7d - - [03/Feb/2018:18:44:24 +0100] "GET /fonts/fonts.css HTTP/1.1" 200 2253 motelavigna.co "http://motelavigna.co/fr/activity" "Mozilla/5.0 (Windows NT 6.3; Win64; x64; rv:58.0) Gecko/20100101 Firefox/58.0" "-"
2a01:cb08:355:ea00:d82c:4e9b:42c3:f7d - - [03/Feb/2018:18:44:24 +0100] "GET /js/index.js HTTP/1.1" 200 6161 motelavigna.co "http://motelavigna.co/fr/activity" "Mozilla/5.0 (Windows NT 6.3; Win64; x64; rv:58.0) Gecko/20100101 Firefox/58.0" "-"
2a01:cb08:355:ea00:d82c:4e9b:42c3:f7d - - [03/Feb/2018:18:44:24 +0100] "GET /js/utils.js HTTP/1.1" 200 4069 motelavigna.co "http://motelavigna.co/fr/activity" "Mozilla/5.0 (Windows NT 6.3; Win64; x64; rv:58.0) Gecko/20100101 Firefox/58.0" "-"
212.227.24.19 - - [03/Feb/2018:18:44:24 +0100] "GET /noIndex/dynamicJS.php/../Translation.json HTTP/1.1" 200 16664 motelavigna.co "-" "-" "-"
2a01:cb08:355:ea00:d82c:4e9b:42c3:f7d - - [03/Feb/2018:18:44:24 +0100] "GET /noIndex/dynamicJS.php HTTP/1.1" 200 16814 motelavigna.co "http://motelavigna.co/fr/activity" "Mozilla/5.0 (Windows NT 6.3; Win64; x64; rv:58.0) Gecko/20100101 Firefox/58.0" "-"
2a01:cb08:355:ea00:d82c:4e9b:42c3:f7d - - [03/Feb/2018:18:44:24 +0100] "GET /js/navigationUrlHistory.js HTTP/1.1" 200 9800 motelavigna.co "http://motelavigna.co/fr/activity" "Mozilla/5.0 (Windows NT 6.3; Win64; x64; rv:58.0) Gecko/20100101 Firefox/58.0" "-"
2a01:cb08:355:ea00:d82c:4e9b:42c3:f7d - - [03/Feb/2018:18:44:25 +0100] "GET /js/domManipulation.js HTTP/1.1" 200 8109 motelavigna.co "http://motelavigna.co/fr/activity" "Mozilla/5.0 (Windows NT 6.3; Win64; x64; rv:58.0) Gecko/20100101 Firefox/58.0" "-"
2a01:cb08:355:ea00:d82c:4e9b:42c3:f7d - - [03/Feb/2018:18:44:25 +0100] "GET /js/domEvent.js HTTP/1.1" 200 4544 motelavigna.co "http://motelavigna.co/fr/activity" "Mozilla/5.0 (Windows NT 6.3; Win64; x64; rv:58.0) Gecko/20100101 Firefox/58.0" "-"
2a01:cb08:355:ea00:d82c:4e9b:42c3:f7d - - [03/Feb/2018:18:44:25 +0100] "GET /js/library/moment.min.js HTTP/1.1" 200 60580 motelavigna.co "http://motelavigna.co/fr/activity" "Mozilla/5.0 (Windows NT 6.3; Win64; x64; rv:58.0) Gecko/20100101 Firefox/58.0" "-"
2a01:cb08:355:ea00:d82c:4e9b:42c3:f7d - - [03/Feb/2018:18:44:25 +0100] "GET /js/carousel.js HTTP/1.1" 200 3636 motelavigna.co "http://motelavigna.co/fr/activity" "Mozilla/5.0 (Windows NT 6.3; Win64; x64; rv:58.0) Gecko/20100101 Firefox/58.0" "-"
2a01:cb08:355:ea00:d82c:4e9b:42c3:f7d - - [03/Feb/2018:18:44:25 +0100] "GET /js/library/scrollTo.js HTTP/1.1" 200 2416 motelavigna.co "http://motelavigna.co/fr/activity" "Mozilla/5.0 (Windows NT 6.3; Win64; x64; rv:58.0) Gecko/20100101 Firefox/58.0" "-"
2a01:cb08:355:ea00:d82c:4e9b:42c3:f7d - - [03/Feb/2018:18:44:25 +0100] "GET /js/library/progressbar.js HTTP/1.1" 200 72956 motelavigna.co "http://motelavigna.co/fr/activity" "Mozilla/5.0 (Windows NT 6.3; Win64; x64; rv:58.0) Gecko/20100101 Firefox/58.0" "-"
2a01:cb08:355:ea00:d82c:4e9b:42c3:f7d - - [03/Feb/2018:18:44:25 +0100] "GET /img/logo.svg HTTP/1.1" 200 22301 motelavigna.co "http://motelavigna.co/fr/activity" "Mozilla/5.0 (Windows NT 6.3; Win64; x64; rv:58.0) Gecko/20100101 Firefox/58.0" "-"
2a01:cb08:355:ea00:d82c:4e9b:42c3:f7d - - [03/Feb/2018:18:44:25 +0100] "GET /img/ancienFiltre1.jpg HTTP/1.1" 200 68507 motelavigna.co "http://motelavigna.co/fr/activity" "Mozilla/5.0 (Windows NT 6.3; Win64; x64; rv:58.0) Gecko/20100101 Firefox/58.0" "-"
2a01:cb08:355:ea00:d82c:4e9b:42c3:f7d - - [03/Feb/2018:18:44:25 +0100] "GET /img/ancienFiltre2.jpg HTTP/1.1" 200 64751 motelavigna.co "http://motelavigna.co/fr/activity" "Mozilla/5.0 (Windows NT 6.3; Win64; x64; rv:58.0) Gecko/20100101 Firefox/58.0" "-"
2a01:cb08:355:ea00:d82c:4e9b:42c3:f7d - - [03/Feb/2018:18:44:25 +0100] "GET /img/nino.jpg HTTP/1.1" 200 255606 motelavigna.co "http://motelavigna.co/fr/activity" "Mozilla/5.0 (Windows NT 6.3; Win64; x64; rv:58.0) Gecko/20100101 Firefox/58.0" "-"
2a01:cb08:355:ea00:d82c:4e9b:42c3:f7d - - [03/Feb/2018:18:44:25 +0100] "GET /fonts/Roboto.woff HTTP/1.1" 200 89732 motelavigna.co "http://motelavigna.co/css/index.css" "Mozilla/5.0 (Windows NT 6.3; Win64; x64; rv:58.0) Gecko/20100101 Firefox/58.0" "-"
2a01:cb08:355:ea00:d82c:4e9b:42c3:f7d - - [03/Feb/2018:18:44:26 +0100] "GET /img/arche.jpg HTTP/1.1" 200 165454 motelavigna.co "http://motelavigna.co/fr/activity" "Mozilla/5.0 (Windows NT 6.3; Win64; x64; rv:58.0) Gecko/20100101 Firefox/58.0" "-"
2a01:cb08:355:ea00:d82c:4e9b:42c3:f7d - - [03/Feb/2018:18:44:26 +0100] "GET /img/terraCorsa.jpg HTTP/1.1" 200 88183 motelavigna.co "http://motelavigna.co/fr/activity" "Mozilla/5.0 (Windows NT 6.3; Win64; x64; rv:58.0) Gecko/20100101 Firefox/58.0" "-"
2a01:cb08:355:ea00:d82c:4e9b:42c3:f7d - - [03/Feb/2018:18:44:27 +0100] "GET /fonts/fontawesome-webfont.woff2?v=4.7.0 HTTP/1.1" 200 77160 motelavigna.co "http://motelavigna.co/css/index.css" "Mozilla/5.0 (Windows NT 6.3; Win64; x64; rv:58.0) Gecko/20100101 Firefox/58.0" "-"
2a01:cb08:355:ea00:d82c:4e9b:42c3:f7d - - [03/Feb/2018:18:44:27 +0100] "GET /noIndex/tripAdvisor.html HTTP/1.1" 200 1878 motelavigna.co "http://motelavigna.co/fr/activity" "Mozilla/5.0 (Windows NT 6.3; Win64; x64; rv:58.0) Gecko/20100101 Firefox/58.0" "-"
2a01:cb08:355:ea00:d82c:4e9b:42c3:f7d - - [03/Feb/2018:18:44:28 +0100] "GET /img/citadelle.jpg HTTP/1.1" 200 44312 motelavigna.co "http://motelavigna.co/fr/activity" "Mozilla/5.0 (Windows NT 6.3; Win64; x64; rv:58.0) Gecko/20100101 Firefox/58.0" "-"
2a01:cb08:355:ea00:d82c:4e9b:42c3:f7d - - [03/Feb/2018:18:44:29 +0100] "GET /img/geoguide.jpg HTTP/1.1" 200 72329 motelavigna.co "http://motelavigna.co/fr/activity" "Mozilla/5.0 (Windows NT 6.3; Win64; x64; rv:58.0) Gecko/20100101 Firefox/58.0" "-"
2a01:cb08:355:ea00:d82c:4e9b:42c3:f7d - - [03/Feb/2018:18:44:30 +0100] "GET /img/lonely.jpg HTTP/1.1" 200 7797 motelavigna.co "http://motelavigna.co/fr/activity" "Mozilla/5.0 (Windows NT 6.3; Win64; x64; rv:58.0) Gecko/20100101 Firefox/58.0" "-"
2a01:cb08:355:ea00:d82c:4e9b:42c3:f7d - - [03/Feb/2018:18:44:30 +0100] "GET /img/routard.jpg HTTP/1.1" 200 21901 motelavigna.co "http://motelavigna.co/fr/activity" "Mozilla/5.0 (Windows NT 6.3; Win64; x64; rv:58.0) Gecko/20100101 Firefox/58.0" "-"
2a01:cb08:355:ea00:d82c:4e9b:42c3:f7d - - [03/Feb/2018:18:44:30 +0100] "GET /img/vigne_1.jpg HTTP/1.1" 200 123730 motelavigna.co "http://motelavigna.co/css/index.css" "Mozilla/5.0 (Windows NT 6.3; Win64; x64; rv:58.0) Gecko/20100101 Firefox/58.0" "-"
2a01:cb08:355:ea00:d82c:4e9b:42c3:f7d - - [03/Feb/2018:18:44:33 +0100] "GET /img/favicon.png HTTP/1.1" 200 5612 motelavigna.co "-" "Mozilla/5.0 (Windows NT 6.3; Win64; x64; rv:58.0) Gecko/20100101 Firefox/58.0" "-"
2a01:cb08:355:ea00:d82c:4e9b:42c3:f7d - - [03/Feb/2018:18:44:48 +0100] "POST /fr/book HTTP/1.1" 200 4628 motelavigna.co "http://motelavigna.co/fr/activity" "Mozilla/5.0 (Windows NT 6.3; Win64; x64; rv:58.0) Gecko/20100101 Firefox/58.0" "-"
2a01:cb08:355:ea00:d82c:4e9b:42c3:f7d - - [03/Feb/2018:18:44:48 +0100] "GET /js/cuppa-calendarFORK.js HTTP/1.1" 200 25661 motelavigna.co "http://motelavigna.co/fr/activity" "Mozilla/5.0 (Windows NT 6.3; Win64; x64; rv:58.0) Gecko/20100101 Firefox/58.0" "-"
66.249.66.5 - - [03/Feb/2018:19:29:35 +0100] "GET / HTTP/1.1" 200 326834 motelavigna.co "-" "Mozilla/5.0 (Linux; Android 6.0.1; Nexus 5X Build/MMB29P) AppleWebKit/537.36 (KHTML, like Gecko) Chrome/41.0.2272.96 Mobile Safari/537.36 (compatible; Googlebot/2.1; +http://www.google.com/bot.html)" "-"
146.185.223.251 - - [03/Feb/2018:19:40:44 +0100] "GET / HTTP/1.1" 200 326834 motelavigna.co "-" "Mozilla/5.0 (Windows NT 10.0; Win64; x64; rv:50.0) Gecko/20100101 Firefox/50.0" "-"
146.185.223.251 - - [03/Feb/2018:19:40:44 +0100] "GET /wp-includes/wlwmanifest.xml HTTP/1.1" 200 8524 motelavigna.co "-" "Mozilla/5.0 (Windows NT 10.0; Win64; x64; rv:50.0) Gecko/20100101 Firefox/50.0" "-"
146.185.223.251 - - [03/Feb/2018:19:40:44 +0100] "GET /xmlrpc.php?rsd HTTP/1.1" 200 8401 motelavigna.co "-" "Mozilla/5.0 (Windows NT 10.0; Win64; x64; rv:50.0) Gecko/20100101 Firefox/50.0" "-"
146.185.223.251 - - [03/Feb/2018:19:40:44 +0100] "GET / HTTP/1.1" 200 326834 motelavigna.co "-" "Mozilla/5.0 (Windows NT 10.0; Win64; x64; rv:50.0) Gecko/20100101 Firefox/50.0" "-"
146.185.223.251 - - [03/Feb/2018:19:40:44 +0100] "GET /wp-content/plugins/wp-mobile-detector/resize.php?src=anatoh.com/bkp/db.php HTTP/1.1" 200 8693 motelavigna.co "-" "Mozilla/5.0 (Windows NT 10.0; Win64; x64; rv:50.0) Gecko/20100101 Firefox/50.0" "-"
146.185.223.251 - - [03/Feb/2018:19:40:44 +0100] "GET /wp-content/plugins/wp-mobile-detector/cache/db.php HTTP/1.1" 200 8676 motelavigna.co "-" "Mozilla/5.0 (Windows NT 10.0; Win64; x64; rv:50.0) Gecko/20100101 Firefox/50.0" "-"
146.185.223.251 - - [03/Feb/2018:19:40:45 +0100] "POST /wp-admin/admin-ajax.php HTTP/1.1" 503 299 motelavigna.co "-" "Mozilla/5.0 (Windows NT 10.0; Win64; x64; rv:50.0) Gecko/20100101 Firefox/50.0" "-"
146.185.223.251 - - [03/Feb/2018:19:40:45 +0100] "GET /wp-content/plugins/revslider/temp/update_extract/revslider/db.php HTTP/1.1" 503 299 motelavigna.co "-" "Mozilla/5.0 (Windows NT 10.0; Win64; x64; rv:50.0) Gecko/20100101 Firefox/50.0" "-"
146.185.223.251 - - [03/Feb/2018:19:40:45 +0100] "POST /wp-content/plugins/wp-symposium/server/php/index.php HTTP/1.1" 503 299 motelavigna.co "-" "Mozilla/5.0 (Windows NT 10.0; Win64; x64; rv:50.0) Gecko/20100101 Firefox/50.0" "-"
146.185.223.251 - - [03/Feb/2018:19:40:45 +0100] "GET /wp-content/plugins/wp-symposium/server/php/BNhiDNLMkEXHpy.php HTTP/1.1" 200 8754 motelavigna.co "-" "Mozilla/5.0 (Windows NT 10.0; Win64; x64; rv:50.0) Gecko/20100101 Firefox/50.0" "-"
54.36.149.61 - - [03/Feb/2018:19:49:31 +0100] "GET /en/home HTTP/1.1" 200 326588 motelavigna.co "-" "Mozilla/5.0 (compatible; AhrefsBot/5.2; +http://ahrefs.com/robot/)" "-"
164.132.161.7 - - [03/Feb/2018:20:37:12 +0100] "GET /fr/carouselPlanning HTTP/1.1" 200 291515 motelavigna.co "-" "Mozilla/5.0 (compatible; AhrefsBot/5.2; +http://ahrefs.com/robot/)" "-"
66.249.66.7 - - [03/Feb/2018:21:10:16 +0100] "GET / HTTP/1.1" 200 326834 motelavigna.co "-" "Mozilla/5.0 (Linux; Android 6.0.1; Nexus 5X Build/MMB29P) AppleWebKit/537.36 (KHTML, like Gecko) Chrome/41.0.2272.96 Mobile Safari/537.36 (compatible; Googlebot/2.1; +http://www.google.com/bot.html)" "-"
217.160.152.31 - - [03/Feb/2018:22:17:40 +0100] "GET / HTTP/1.1" 200 326834 motelavigna.co "-" "Mozilla/5.0 (Macintosh; Intel Mac OS X 10_9_3) AppleWebKit/537.75.14 (KHTML, like Gecko) Version/7.0.3 Safari/7046A194A" "-"
217.160.152.31 - - [03/Feb/2018:22:17:41 +0100] "GET / HTTP/1.1" 200 326834 motelavigna.co "-" "Mozilla/5.0 (Macintosh; Intel Mac OS X 10_9_3) AppleWebKit/537.75.14 (KHTML, like Gecko) Version/7.0.3 Safari/7046A194A" "-"
217.160.152.31 - - [03/Feb/2018:22:17:41 +0100] "GET /css/index.css HTTP/1.1" 200 88587 motelavigna.co "http://motelavigna.co/" "Mozilla/5.0 (Macintosh; Intel Mac OS X 10_9_3) AppleWebKit/537.75.14 (KHTML, like Gecko) Version/7.0.3 Safari/7046A194A" "-"
217.160.152.31 - - [03/Feb/2018:22:17:41 +0100] "GET /js/index.js HTTP/1.1" 200 6161 motelavigna.co "http://motelavigna.co/" "Mozilla/5.0 (Macintosh; Intel Mac OS X 10_9_3) AppleWebKit/537.75.14 (KHTML, like Gecko) Version/7.0.3 Safari/7046A194A" "-"
217.160.152.31 - - [03/Feb/2018:22:17:41 +0100] "GET /js/utils.js HTTP/1.1" 200 4069 motelavigna.co "http://motelavigna.co/" "Mozilla/5.0 (Macintosh; Intel Mac OS X 10_9_3) AppleWebKit/537.75.14 (KHTML, like Gecko) Version/7.0.3 Safari/7046A194A" "-"
217.160.152.31 - - [03/Feb/2018:22:17:41 +0100] "GET /js/navigationUrlHistory.js HTTP/1.1" 200 9800 motelavigna.co "http://motelavigna.co/" "Mozilla/5.0 (Macintosh; Intel Mac OS X 10_9_3) AppleWebKit/537.75.14 (KHTML, like Gecko) Version/7.0.3 Safari/7046A194A" "-"
217.160.152.31 - - [03/Feb/2018:22:17:41 +0100] "GET /fonts/fonts.css HTTP/1.1" 200 2253 motelavigna.co "http://motelavigna.co/" "Mozilla/5.0 (Macintosh; Intel Mac OS X 10_9_3) AppleWebKit/537.75.14 (KHTML, like Gecko) Version/7.0.3 Safari/7046A194A" "-"
217.160.152.31 - - [03/Feb/2018:22:17:41 +0100] "GET /js/domManipulation.js HTTP/1.1" 200 8109 motelavigna.co "http://motelavigna.co/" "Mozilla/5.0 (Macintosh; Intel Mac OS X 10_9_3) AppleWebKit/537.75.14 (KHTML, like Gecko) Version/7.0.3 Safari/7046A194A" "-"
217.160.152.31 - - [03/Feb/2018:22:17:41 +0100] "GET /js/domEvent.js HTTP/1.1" 200 4544 motelavigna.co "http://motelavigna.co/" "Mozilla/5.0 (Macintosh; Intel Mac OS X 10_9_3) AppleWebKit/537.75.14 (KHTML, like Gecko) Version/7.0.3 Safari/7046A194A" "-"
212.227.24.19 - - [03/Feb/2018:22:17:41 +0100] "GET /noIndex/dynamicJS.php/../Translation.json HTTP/1.1" 200 16664 motelavigna.co "-" "-" "-"
217.160.152.31 - - [03/Feb/2018:22:17:41 +0100] "GET /noIndex/dynamicJS.php HTTP/1.1" 200 16814 motelavigna.co "http://motelavigna.co/" "Mozilla/5.0 (Macintosh; Intel Mac OS X 10_9_3) AppleWebKit/537.75.14 (KHTML, like Gecko) Version/7.0.3 Safari/7046A194A" "-"
217.160.152.31 - - [03/Feb/2018:22:17:41 +0100] "GET /js/library/moment.min.js HTTP/1.1" 200 60580 motelavigna.co "http://motelavigna.co/" "Mozilla/5.0 (Macintosh; Intel Mac OS X 10_9_3) AppleWebKit/537.75.14 (KHTML, like Gecko) Version/7.0.3 Safari/7046A194A" "-"
217.160.152.31 - - [03/Feb/2018:22:17:41 +0100] "GET /js/carousel.js HTTP/1.1" 200 3636 motelavigna.co "http://motelavigna.co/" "Mozilla/5.0 (Macintosh; Intel Mac OS X 10_9_3) AppleWebKit/537.75.14 (KHTML, like Gecko) Version/7.0.3 Safari/7046A194A" "-"
217.160.152.31 - - [03/Feb/2018:22:17:41 +0100] "GET /js/library/scrollTo.js HTTP/1.1" 200 2416 motelavigna.co "http://motelavigna.co/" "Mozilla/5.0 (Macintosh; Intel Mac OS X 10_9_3) AppleWebKit/537.75.14 (KHTML, like Gecko) Version/7.0.3 Safari/7046A194A" "-"
217.160.152.31 - - [03/Feb/2018:22:17:41 +0100] "GET /js/library/progressbar.js HTTP/1.1" 200 72956 motelavigna.co "http://motelavigna.co/" "Mozilla/5.0 (Macintosh; Intel Mac OS X 10_9_3) AppleWebKit/537.75.14 (KHTML, like Gecko) Version/7.0.3 Safari/7046A194A" "-"
217.160.152.31 - - [03/Feb/2018:22:17:41 +0100] "GET /img/vigne_1.jpg HTTP/1.1" 200 123730 motelavigna.co "http://motelavigna.co/css/index.css" "Mozilla/5.0 (Macintosh; Intel Mac OS X 10_9_3) AppleWebKit/537.75.14 (KHTML, like Gecko) Version/7.0.3 Safari/7046A194A" "-"
217.160.152.31 - - [03/Feb/2018:22:17:41 +0100] "GET /img/logo.svg HTTP/1.1" 200 22301 motelavigna.co "http://motelavigna.co/" "Mozilla/5.0 (Macintosh; Intel Mac OS X 10_9_3) AppleWebKit/537.75.14 (KHTML, like Gecko) Version/7.0.3 Safari/7046A194A" "-"
217.160.152.31 - - [03/Feb/2018:22:17:41 +0100] "GET /noIndex/files/GallerieAccueil/0a1-%20FACADE%20MOTEL.jpg HTTP/1.1" 200 161415 motelavigna.co "http://motelavigna.co/" "Mozilla/5.0 (Macintosh; Intel Mac OS X 10_9_3) AppleWebKit/537.75.14 (KHTML, like Gecko) Version/7.0.3 Safari/7046A194A" "-"
217.160.152.31 - - [03/Feb/2018:22:17:41 +0100] "GET /noIndex/files/GallerieAccueil/a3%20-%20SEJOUR%20STUDIO%2016%20(8).jpg HTTP/1.1" 200 109119 motelavigna.co "http://motelavigna.co/" "Mozilla/5.0 (Macintosh; Intel Mac OS X 10_9_3) AppleWebKit/537.75.14 (KHTML, like Gecko) Version/7.0.3 Safari/7046A194A" "-"
217.160.152.31 - - [03/Feb/2018:22:17:41 +0100] "GET /noIndex/files/GallerieAccueil/1155412fd29f8c2786c6063493cc0b86.jpg HTTP/1.1" 200 167890 motelavigna.co "http://motelavigna.co/" "Mozilla/5.0 (Macintosh; Intel Mac OS X 10_9_3) AppleWebKit/537.75.14 (KHTML, like Gecko) Version/7.0.3 Safari/7046A194A" "-"
217.160.152.31 - - [03/Feb/2018:22:17:41 +0100] "GET /noIndex/files/GallerieAccueil/a3%20-%20SEJOUR%20STUDIO%2016%20(10).jpg HTTP/1.1" 200 9294 motelavigna.co "http://motelavigna.co/" "Mozilla/5.0 (Macintosh; Intel Mac OS X 10_9_3) AppleWebKit/537.75.14 (KHTML, like Gecko) Version/7.0.3 Safari/7046A194A" "-"
217.160.152.31 - - [03/Feb/2018:22:17:41 +0100] "GET /noIndex/files/GallerieAccueil/7314bc8deced5f2f74ce35d696b3ac49.jpg HTTP/1.1" 200 44113 motelavigna.co "http://motelavigna.co/" "Mozilla/5.0 (Macintosh; Intel Mac OS X 10_9_3) AppleWebKit/537.75.14 (KHTML, like Gecko) Version/7.0.3 Safari/7046A194A" "-"
217.160.152.31 - - [03/Feb/2018:22:17:41 +0100] "GET /noIndex/files/GallerieAccueil/a2%20-%20AIRE%20DE%20JEUX%202.jpg HTTP/1.1" 200 111099 motelavigna.co "http://motelavigna.co/" "Mozilla/5.0 (Macintosh; Intel Mac OS X 10_9_3) AppleWebKit/537.75.14 (KHTML, like Gecko) Version/7.0.3 Safari/7046A194A" "-"
217.160.152.31 - - [03/Feb/2018:22:17:41 +0100] "GET /noIndex/files/GallerieAccueil/a3%20-%20SEJOUR%20STUDIO%2016%20(15).jpg HTTP/1.1" 200 42393 motelavigna.co "http://motelavigna.co/" "Mozilla/5.0 (Macintosh; Intel Mac OS X 10_9_3) AppleWebKit/537.75.14 (KHTML, like Gecko) Version/7.0.3 Safari/7046A194A" "-"
217.160.152.31 - - [03/Feb/2018:22:17:41 +0100] "GET /fonts/fontawesome-webfont.woff2?v=4.7.0 HTTP/1.1" 200 77160 motelavigna.co "http://motelavigna.co/css/index.css" "Mozilla/5.0 (Macintosh; Intel Mac OS X 10_9_3) AppleWebKit/537.75.14 (KHTML, like Gecko) Version/7.0.3 Safari/7046A194A" "-"
217.160.152.31 - - [03/Feb/2018:22:17:41 +0100] "GET /noIndex/files/GallerieAccueil/a3%20-%20SEJOUR%20STUDIO%2016%20(9).jpg HTTP/1.1" 200 133336 motelavigna.co "http://motelavigna.co/" "Mozilla/5.0 (Macintosh; Intel Mac OS X 10_9_3) AppleWebKit/537.75.14 (KHTML, like Gecko) Version/7.0.3 Safari/7046A194A" "-"
217.160.152.31 - - [03/Feb/2018:22:17:41 +0100] "GET /noIndex/files/GallerieAccueil/a3%20-%20SEJOUR%20STUDIO%2016%20(5).jpg HTTP/1.1" 200 154308 motelavigna.co "http://motelavigna.co/" "Mozilla/5.0 (Macintosh; Intel Mac OS X 10_9_3) AppleWebKit/537.75.14 (KHTML, like Gecko) Version/7.0.3 Safari/7046A194A" "-"
217.160.152.31 - - [03/Feb/2018:22:17:41 +0100] "GET /noIndex/files/GallerieAccueil/a3%20-%20SEJOUR%20STUDIO%2016%20(6).jpg HTTP/1.1" 200 89035 motelavigna.co "http://motelavigna.co/" "Mozilla/5.0 (Macintosh; Intel Mac OS X 10_9_3) AppleWebKit/537.75.14 (KHTML, like Gecko) Version/7.0.3 Safari/7046A194A" "-"
217.160.152.31 - - [03/Feb/2018:22:17:41 +0100] "GET /noIndex/files/GallerieAccueil/a3%20-%20SEJOUR%20STUDIO%2016%20(7).jpg HTTP/1.1" 200 73355 motelavigna.co "http://motelavigna.co/" "Mozilla/5.0 (Macintosh; Intel Mac OS X 10_9_3) AppleWebKit/537.75.14 (KHTML, like Gecko) Version/7.0.3 Safari/7046A194A" "-"
217.160.152.31 - - [03/Feb/2018:22:17:41 +0100] "GET /noIndex/files/GallerieAccueil/a3%20-%20SEJOUR%20STUDIO%2016%20(1).jpg HTTP/1.1" 200 69554 motelavigna.co "http://motelavigna.co/" "Mozilla/5.0 (Macintosh; Intel Mac OS X 10_9_3) AppleWebKit/537.75.14 (KHTML, like Gecko) Version/7.0.3 Safari/7046A194A" "-"
217.160.152.31 - - [03/Feb/2018:22:17:41 +0100] "GET /noIndex/files/GallerieAccueil/a3%20-%20SEJOUR%20STUDIO%2016%20(2).jpg HTTP/1.1" 200 91348 motelavigna.co "http://motelavigna.co/" "Mozilla/5.0 (Macintosh; Intel Mac OS X 10_9_3) AppleWebKit/537.75.14 (KHTML, like Gecko) Version/7.0.3 Safari/7046A194A" "-"
217.160.152.31 - - [03/Feb/2018:22:17:41 +0100] "GET /js/cuppa-calendarFORK.js HTTP/1.1" 200 25661 motelavigna.co "http://motelavigna.co/fr/home" "Mozilla/5.0 (Macintosh; Intel Mac OS X 10_9_3) AppleWebKit/537.75.14 (KHTML, like Gecko) Version/7.0.3 Safari/7046A194A" "-"
217.160.152.31 - - [03/Feb/2018:22:17:41 +0100] "GET /img/ancv.png HTTP/1.1" 200 217074 motelavigna.co "http://motelavigna.co/" "Mozilla/5.0 (Macintosh; Intel Mac OS X 10_9_3) AppleWebKit/537.75.14 (KHTML, like Gecko) Version/7.0.3 Safari/7046A194A" "-"
217.160.152.31 - - [03/Feb/2018:22:17:41 +0100] "GET /noIndex/files/GallerieAccueil/a3%20-%20SEJOUR%20STUDIO%2016%20(12).jpg HTTP/1.1" 200 35239 motelavigna.co "http://motelavigna.co/" "Mozilla/5.0 (Macintosh; Intel Mac OS X 10_9_3) AppleWebKit/537.75.14 (KHTML, like Gecko) Version/7.0.3 Safari/7046A194A" "-"
217.160.152.31 - - [03/Feb/2018:22:17:42 +0100] "GET /noIndex/files/GallerieAccueil/a3%20-%20SEJOUR%20STUDIO%2016%20(13).jpg HTTP/1.1" 200 192033 motelavigna.co "http://motelavigna.co/" "Mozilla/5.0 (Macintosh; Intel Mac OS X 10_9_3) AppleWebKit/537.75.14 (KHTML, like Gecko) Version/7.0.3 Safari/7046A194A" "-"
217.160.152.31 - - [03/Feb/2018:22:17:42 +0100] "GET /noIndex/files/GallerieAccueil/a3%20-%20SEJOUR%20STUDIO%2016%20(11).jpg HTTP/1.1" 200 47637 motelavigna.co "http://motelavigna.co/" "Mozilla/5.0 (Macintosh; Intel Mac OS X 10_9_3) AppleWebKit/537.75.14 (KHTML, like Gecko) Version/7.0.3 Safari/7046A194A" "-"
217.160.152.31 - - [03/Feb/2018:22:17:42 +0100] "GET /img/lonely.jpg HTTP/1.1" 200 7797 motelavigna.co "http://motelavigna.co/" "Mozilla/5.0 (Macintosh; Intel Mac OS X 10_9_3) AppleWebKit/537.75.14 (KHTML, like Gecko) Version/7.0.3 Safari/7046A194A" "-"
217.160.152.31 - - [03/Feb/2018:22:17:42 +0100] "GET /noIndex/files/GallerieAccueil/a3%20-%20SEJOUR%20STUDIO%2016%20(4).jpg HTTP/1.1" 200 240890 motelavigna.co "http://motelavigna.co/" "Mozilla/5.0 (Macintosh; Intel Mac OS X 10_9_3) AppleWebKit/537.75.14 (KHTML, like Gecko) Version/7.0.3 Safari/7046A194A" "-"
217.160.152.31 - - [03/Feb/2018:22:17:42 +0100] "GET /noIndex/files/GallerieAccueil/a3%20-%20SEJOUR%20STUDIO%2016%20(14).jpg HTTP/1.1" 200 43832 motelavigna.co "http://motelavigna.co/" "Mozilla/5.0 (Macintosh; Intel Mac OS X 10_9_3) AppleWebKit/537.75.14 (KHTML, like Gecko) Version/7.0.3 Safari/7046A194A" "-"
217.160.152.31 - - [03/Feb/2018:22:17:42 +0100] "GET /noIndex/tripAdvisor.html HTTP/1.1" 200 1878 motelavigna.co "http://motelavigna.co/fr/home" "Mozilla/5.0 (Macintosh; Intel Mac OS X 10_9_3) AppleWebKit/537.75.14 (KHTML, like Gecko) Version/7.0.3 Safari/7046A194A" "-"
217.160.152.31 - - [03/Feb/2018:22:17:42 +0100] "GET /img/virement.png HTTP/1.1" 200 52840 motelavigna.co "http://motelavigna.co/" "Mozilla/5.0 (Macintosh; Intel Mac OS X 10_9_3) AppleWebKit/537.75.14 (KHTML, like Gecko) Version/7.0.3 Safari/7046A194A" "-"
217.160.152.31 - - [03/Feb/2018:22:17:42 +0100] "GET /noIndex/map.html HTTP/1.1" 200 2219 motelavigna.co "http://motelavigna.co/fr/home" "Mozilla/5.0 (Macintosh; Intel Mac OS X 10_9_3) AppleWebKit/537.75.14 (KHTML, like Gecko) Version/7.0.3 Safari/7046A194A" "-"
217.160.152.31 - - [03/Feb/2018:22:17:42 +0100] "GET /img/qrcode.png HTTP/1.1" 200 396 motelavigna.co "http://motelavigna.co/noIndex/map.html" "Mozilla/5.0 (Macintosh; Intel Mac OS X 10_9_3) AppleWebKit/537.75.14 (KHTML, like Gecko) Version/7.0.3 Safari/7046A194A" "-"
217.160.152.31 - - [03/Feb/2018:22:17:42 +0100] "GET /img/cheque.png HTTP/1.1" 200 15471 motelavigna.co "http://motelavigna.co/" "Mozilla/5.0 (Macintosh; Intel Mac OS X 10_9_3) AppleWebKit/537.75.14 (KHTML, like Gecko) Version/7.0.3 Safari/7046A194A" "-"
217.160.152.31 - - [03/Feb/2018:22:17:42 +0100] "GET /img/geoguide.jpg HTTP/1.1" 200 72329 motelavigna.co "http://motelavigna.co/" "Mozilla/5.0 (Macintosh; Intel Mac OS X 10_9_3) AppleWebKit/537.75.14 (KHTML, like Gecko) Version/7.0.3 Safari/7046A194A" "-"
217.160.152.31 - - [03/Feb/2018:22:17:42 +0100] "GET /img/routard.jpg HTTP/1.1" 200 21901 motelavigna.co "http://motelavigna.co/" "Mozilla/5.0 (Macintosh; Intel Mac OS X 10_9_3) AppleWebKit/537.75.14 (KHTML, like Gecko) Version/7.0.3 Safari/7046A194A" "-"
2a01:e34:edc9:bb10:34d3:72db:e92c:b1cd - - [03/Feb/2018:22:17:50 +0100] "GET / HTTP/1.1" 200 326834 motelavigna.co "-" "Mozilla/5.0 (X11; Linux x86_64) AppleWebKit/537.36 (KHTML, like Gecko) Chrome/63.0.3239.132 Safari/537.36" "-"
2a01:e34:edc9:bb10:34d3:72db:e92c:b1cd - - [03/Feb/2018:22:17:51 +0100] "GET /css/index.css HTTP/1.1" 200 88587 motelavigna.co "http://motelavigna.co/" "Mozilla/5.0 (X11; Linux x86_64) AppleWebKit/537.36 (KHTML, like Gecko) Chrome/63.0.3239.132 Safari/537.36" "-"
2a01:e34:edc9:bb10:34d3:72db:e92c:b1cd - - [03/Feb/2018:22:17:51 +0100] "GET /fonts/fonts.css HTTP/1.1" 200 2253 motelavigna.co "http://motelavigna.co/" "Mozilla/5.0 (X11; Linux x86_64) AppleWebKit/537.36 (KHTML, like Gecko) Chrome/63.0.3239.132 Safari/537.36" "-"
2a01:e34:edc9:bb10:34d3:72db:e92c:b1cd - - [03/Feb/2018:22:17:51 +0100] "GET /js/index.js HTTP/1.1" 200 6161 motelavigna.co "http://motelavigna.co/" "Mozilla/5.0 (X11; Linux x86_64) AppleWebKit/537.36 (KHTML, like Gecko) Chrome/63.0.3239.132 Safari/537.36" "-"
212.227.24.19 - - [03/Feb/2018:22:17:51 +0100] "GET /noIndex/dynamicJS.php/../Translation.json HTTP/1.1" 200 16664 motelavigna.co "-" "-" "-"
2a01:e34:edc9:bb10:34d3:72db:e92c:b1cd - - [03/Feb/2018:22:17:51 +0100] "GET /noIndex/dynamicJS.php HTTP/1.1" 200 16814 motelavigna.co "http://motelavigna.co/" "Mozilla/5.0 (X11; Linux x86_64) AppleWebKit/537.36 (KHTML, like Gecko) Chrome/63.0.3239.132 Safari/537.36" "-"
2a01:e34:edc9:bb10:34d3:72db:e92c:b1cd - - [03/Feb/2018:22:17:51 +0100] "GET /js/utils.js HTTP/1.1" 200 4069 motelavigna.co "http://motelavigna.co/" "Mozilla/5.0 (X11; Linux x86_64) AppleWebKit/537.36 (KHTML, like Gecko) Chrome/63.0.3239.132 Safari/537.36" "-"
2a01:e34:edc9:bb10:34d3:72db:e92c:b1cd - - [03/Feb/2018:22:17:51 +0100] "GET /js/domManipulation.js HTTP/1.1" 200 8109 motelavigna.co "http://motelavigna.co/" "Mozilla/5.0 (X11; Linux x86_64) AppleWebKit/537.36 (KHTML, like Gecko) Chrome/63.0.3239.132 Safari/537.36" "-"
2a01:e34:edc9:bb10:34d3:72db:e92c:b1cd - - [03/Feb/2018:22:17:51 +0100] "GET /js/navigationUrlHistory.js HTTP/1.1" 200 9800 motelavigna.co "http://motelavigna.co/" "Mozilla/5.0 (X11; Linux x86_64) AppleWebKit/537.36 (KHTML, like Gecko) Chrome/63.0.3239.132 Safari/537.36" "-"
2a01:e34:edc9:bb10:34d3:72db:e92c:b1cd - - [03/Feb/2018:22:17:51 +0100] "GET /js/domEvent.js HTTP/1.1" 200 4544 motelavigna.co "http://motelavigna.co/" "Mozilla/5.0 (X11; Linux x86_64) AppleWebKit/537.36 (KHTML, like Gecko) Chrome/63.0.3239.132 Safari/537.36" "-"
2a01:e34:edc9:bb10:34d3:72db:e92c:b1cd - - [03/Feb/2018:22:17:51 +0100] "GET /js/library/moment.min.js HTTP/1.1" 200 60580 motelavigna.co "http://motelavigna.co/" "Mozilla/5.0 (X11; Linux x86_64) AppleWebKit/537.36 (KHTML, like Gecko) Chrome/63.0.3239.132 Safari/537.36" "-"
2a01:e34:edc9:bb10:34d3:72db:e92c:b1cd - - [03/Feb/2018:22:17:51 +0100] "GET /js/carousel.js HTTP/1.1" 200 3636 motelavigna.co "http://motelavigna.co/" "Mozilla/5.0 (X11; Linux x86_64) AppleWebKit/537.36 (KHTML, like Gecko) Chrome/63.0.3239.132 Safari/537.36" "-"
2a01:e34:edc9:bb10:34d3:72db:e92c:b1cd - - [03/Feb/2018:22:17:51 +0100] "GET /js/library/scrollTo.js HTTP/1.1" 200 2416 motelavigna.co "http://motelavigna.co/" "Mozilla/5.0 (X11; Linux x86_64) AppleWebKit/537.36 (KHTML, like Gecko) Chrome/63.0.3239.132 Safari/537.36" "-"
2a01:e34:edc9:bb10:34d3:72db:e92c:b1cd - - [03/Feb/2018:22:17:51 +0100] "GET /js/library/progressbar.js HTTP/1.1" 200 72956 motelavigna.co "http://motelavigna.co/" "Mozilla/5.0 (X11; Linux x86_64) AppleWebKit/537.36 (KHTML, like Gecko) Chrome/63.0.3239.132 Safari/537.36" "-"
2a01:e34:edc9:bb10:34d3:72db:e92c:b1cd - - [03/Feb/2018:22:17:51 +0100] "GET /img/logo.svg HTTP/1.1" 200 22301 motelavigna.co "http://motelavigna.co/" "Mozilla/5.0 (X11; Linux x86_64) AppleWebKit/537.36 (KHTML, like Gecko) Chrome/63.0.3239.132 Safari/537.36" "-"
2a01:e34:edc9:bb10:34d3:72db:e92c:b1cd - - [03/Feb/2018:22:17:51 +0100] "GET /noIndex/files/GallerieAccueil/0a1-%20FACADE%20MOTEL.jpg HTTP/1.1" 200 161415 motelavigna.co "http://motelavigna.co/" "Mozilla/5.0 (X11; Linux x86_64) AppleWebKit/537.36 (KHTML, like Gecko) Chrome/63.0.3239.132 Safari/537.36" "-"
2a01:e34:edc9:bb10:34d3:72db:e92c:b1cd - - [03/Feb/2018:22:17:51 +0100] "GET /noIndex/files/GallerieAccueil/1155412fd29f8c2786c6063493cc0b86.jpg HTTP/1.1" 200 167890 motelavigna.co "http://motelavigna.co/" "Mozilla/5.0 (X11; Linux x86_64) AppleWebKit/537.36 (KHTML, like Gecko) Chrome/63.0.3239.132 Safari/537.36" "-"
2a01:e34:edc9:bb10:34d3:72db:e92c:b1cd - - [03/Feb/2018:22:17:52 +0100] "GET /img/vigne_1.jpg HTTP/1.1" 200 123730 motelavigna.co "http://motelavigna.co/css/index.css" "Mozilla/5.0 (X11; Linux x86_64) AppleWebKit/537.36 (KHTML, like Gecko) Chrome/63.0.3239.132 Safari/537.36" "-"
2a01:e34:edc9:bb10:34d3:72db:e92c:b1cd - - [03/Feb/2018:22:17:52 +0100] "GET /noIndex/files/GallerieAccueil/7314bc8deced5f2f74ce35d696b3ac49.jpg HTTP/1.1" 200 44113 motelavigna.co "http://motelavigna.co/" "Mozilla/5.0 (X11; Linux x86_64) AppleWebKit/537.36 (KHTML, like Gecko) Chrome/63.0.3239.132 Safari/537.36" "-"
2a01:e34:edc9:bb10:34d3:72db:e92c:b1cd - - [03/Feb/2018:22:17:52 +0100] "GET /noIndex/files/GallerieAccueil/a2%20-%20AIRE%20DE%20JEUX%202.jpg HTTP/1.1" 200 111099 motelavigna.co "http://motelavigna.co/" "Mozilla/5.0 (X11; Linux x86_64) AppleWebKit/537.36 (KHTML, like Gecko) Chrome/63.0.3239.132 Safari/537.36" "-"
2a01:e34:edc9:bb10:34d3:72db:e92c:b1cd - - [03/Feb/2018:22:17:52 +0100] "GET /noIndex/files/GallerieAccueil/a3%20-%20SEJOUR%20STUDIO%2016%20(1).jpg HTTP/1.1" 200 69554 motelavigna.co "http://motelavigna.co/" "Mozilla/5.0 (X11; Linux x86_64) AppleWebKit/537.36 (KHTML, like Gecko) Chrome/63.0.3239.132 Safari/537.36" "-"
2a01:e34:edc9:bb10:34d3:72db:e92c:b1cd - - [03/Feb/2018:22:17:52 +0100] "GET /fonts/fontawesome-webfont.woff2?v=4.7.0 HTTP/1.1" 200 77160 motelavigna.co "http://motelavigna.co/css/index.css" "Mozilla/5.0 (X11; Linux x86_64) AppleWebKit/537.36 (KHTML, like Gecko) Chrome/63.0.3239.132 Safari/537.36" "-"
2a01:e34:edc9:bb10:34d3:72db:e92c:b1cd - - [03/Feb/2018:22:17:52 +0100] "GET /noIndex/files/GallerieAccueil/a3%20-%20SEJOUR%20STUDIO%2016%20(15).jpg HTTP/1.1" 200 42393 motelavigna.co "http://motelavigna.co/" "Mozilla/5.0 (X11; Linux x86_64) AppleWebKit/537.36 (KHTML, like Gecko) Chrome/63.0.3239.132 Safari/537.36" "-"
2a01:e34:edc9:bb10:34d3:72db:e92c:b1cd - - [03/Feb/2018:22:17:52 +0100] "GET /noIndex/files/GallerieAccueil/a3%20-%20SEJOUR%20STUDIO%2016%20(6).jpg HTTP/1.1" 200 89035 motelavigna.co "http://motelavigna.co/" "Mozilla/5.0 (X11; Linux x86_64) AppleWebKit/537.36 (KHTML, like Gecko) Chrome/63.0.3239.132 Safari/537.36" "-"
2a01:e34:edc9:bb10:34d3:72db:e92c:b1cd - - [03/Feb/2018:22:17:53 +0100] "GET /noIndex/files/GallerieAccueil/a3%20-%20SEJOUR%20STUDIO%2016%20(13).jpg HTTP/1.1" 200 192033 motelavigna.co "http://motelavigna.co/" "Mozilla/5.0 (X11; Linux x86_64) AppleWebKit/537.36 (KHTML, like Gecko) Chrome/63.0.3239.132 Safari/537.36" "-"
2a01:e34:edc9:bb10:34d3:72db:e92c:b1cd - - [03/Feb/2018:22:17:53 +0100] "GET /noIndex/files/GallerieAccueil/a3%20-%20SEJOUR%20STUDIO%2016%20(14).jpg HTTP/1.1" 200 43832 motelavigna.co "http://motelavigna.co/" "Mozilla/5.0 (X11; Linux x86_64) AppleWebKit/537.36 (KHTML, like Gecko) Chrome/63.0.3239.132 Safari/537.36" "-"
2a01:e34:edc9:bb10:34d3:72db:e92c:b1cd - - [03/Feb/2018:22:17:53 +0100] "GET /noIndex/files/GallerieAccueil/a3%20-%20SEJOUR%20STUDIO%2016%20(2).jpg HTTP/1.1" 200 91348 motelavigna.co "http://motelavigna.co/" "Mozilla/5.0 (X11; Linux x86_64) AppleWebKit/537.36 (KHTML, like Gecko) Chrome/63.0.3239.132 Safari/537.36" "-"
2a01:e34:edc9:bb10:34d3:72db:e92c:b1cd - - [03/Feb/2018:22:17:53 +0100] "GET /noIndex/files/GallerieAccueil/a3%20-%20SEJOUR%20STUDIO%2016%20(12).jpg HTTP/1.1" 200 35239 motelavigna.co "http://motelavigna.co/" "Mozilla/5.0 (X11; Linux x86_64) AppleWebKit/537.36 (KHTML, like Gecko) Chrome/63.0.3239.132 Safari/537.36" "-"
2a01:e34:edc9:bb10:34d3:72db:e92c:b1cd - - [03/Feb/2018:22:17:53 +0100] "GET /noIndex/files/GallerieAccueil/a3%20-%20SEJOUR%20STUDIO%2016%20(5).jpg HTTP/1.1" 200 154308 motelavigna.co "http://motelavigna.co/" "Mozilla/5.0 (X11; Linux x86_64) AppleWebKit/537.36 (KHTML, like Gecko) Chrome/63.0.3239.132 Safari/537.36" "-"
2a01:e34:edc9:bb10:34d3:72db:e92c:b1cd - - [03/Feb/2018:22:17:53 +0100] "GET /noIndex/files/GallerieAccueil/a3%20-%20SEJOUR%20STUDIO%2016%20(11).jpg HTTP/1.1" 200 47637 motelavigna.co "http://motelavigna.co/" "Mozilla/5.0 (X11; Linux x86_64) AppleWebKit/537.36 (KHTML, like Gecko) Chrome/63.0.3239.132 Safari/537.36" "-"
2a01:e34:edc9:bb10:34d3:72db:e92c:b1cd - - [03/Feb/2018:22:17:53 +0100] "GET /noIndex/files/GallerieAccueil/a3%20-%20SEJOUR%20STUDIO%2016%20(7).jpg HTTP/1.1" 200 73355 motelavigna.co "http://motelavigna.co/" "Mozilla/5.0 (X11; Linux x86_64) AppleWebKit/537.36 (KHTML, like Gecko) Chrome/63.0.3239.132 Safari/537.36" "-"
2a01:e34:edc9:bb10:34d3:72db:e92c:b1cd - - [03/Feb/2018:22:17:53 +0100] "GET /noIndex/files/GallerieAccueil/a3%20-%20SEJOUR%20STUDIO%2016%20(9).jpg HTTP/1.1" 200 133336 motelavigna.co "http://motelavigna.co/" "Mozilla/5.0 (X11; Linux x86_64) AppleWebKit/537.36 (KHTML, like Gecko) Chrome/63.0.3239.132 Safari/537.36" "-"
2a01:e34:edc9:bb10:34d3:72db:e92c:b1cd - - [03/Feb/2018:22:17:54 +0100] "GET /noIndex/files/GallerieAccueil/a3%20-%20SEJOUR%20STUDIO%2016%20(4).jpg HTTP/1.1" 200 240890 motelavigna.co "http://motelavigna.co/" "Mozilla/5.0 (X11; Linux x86_64) AppleWebKit/537.36 (KHTML, like Gecko) Chrome/63.0.3239.132 Safari/537.36" "-"
2a01:e34:edc9:bb10:34d3:72db:e92c:b1cd - - [03/Feb/2018:22:17:54 +0100] "GET /noIndex/files/GallerieAccueil/a3%20-%20SEJOUR%20STUDIO%2016%20(8).jpg HTTP/1.1" 200 109119 motelavigna.co "http://motelavigna.co/" "Mozilla/5.0 (X11; Linux x86_64) AppleWebKit/537.36 (KHTML, like Gecko) Chrome/63.0.3239.132 Safari/537.36" "-"
2a01:e34:edc9:bb10:34d3:72db:e92c:b1cd - - [03/Feb/2018:22:17:54 +0100] "GET /noIndex/files/GallerieAccueil/a3%20-%20SEJOUR%20STUDIO%2016%20(10).jpg HTTP/1.1" 200 9294 motelavigna.co "http://motelavigna.co/" "Mozilla/5.0 (X11; Linux x86_64) AppleWebKit/537.36 (KHTML, like Gecko) Chrome/63.0.3239.132 Safari/537.36" "-"
2a01:e34:edc9:bb10:34d3:72db:e92c:b1cd - - [03/Feb/2018:22:17:54 +0100] "GET /img/ancv.png HTTP/1.1" 200 217074 motelavigna.co "http://motelavigna.co/" "Mozilla/5.0 (X11; Linux x86_64) AppleWebKit/537.36 (KHTML, like Gecko) Chrome/63.0.3239.132 Safari/537.36" "-"
2a01:e34:edc9:bb10:34d3:72db:e92c:b1cd - - [03/Feb/2018:22:17:54 +0100] "GET /js/cuppa-calendarFORK.js HTTP/1.1" 200 25661 motelavigna.co "http://motelavigna.co/fr/home" "Mozilla/5.0 (X11; Linux x86_64) AppleWebKit/537.36 (KHTML, like Gecko) Chrome/63.0.3239.132 Safari/537.36" "-"
2a01:e34:edc9:bb10:34d3:72db:e92c:b1cd - - [03/Feb/2018:22:17:54 +0100] "GET /img/virement.png HTTP/1.1" 200 52840 motelavigna.co "http://motelavigna.co/" "Mozilla/5.0 (X11; Linux x86_64) AppleWebKit/537.36 (KHTML, like Gecko) Chrome/63.0.3239.132 Safari/537.36" "-"
2a01:e34:edc9:bb10:34d3:72db:e92c:b1cd - - [03/Feb/2018:22:17:55 +0100] "GET /img/cheque.png HTTP/1.1" 200 15471 motelavigna.co "http://motelavigna.co/" "Mozilla/5.0 (X11; Linux x86_64) AppleWebKit/537.36 (KHTML, like Gecko) Chrome/63.0.3239.132 Safari/537.36" "-"
2a01:e34:edc9:bb10:34d3:72db:e92c:b1cd - - [03/Feb/2018:22:17:55 +0100] "GET /img/geoguide.jpg HTTP/1.1" 200 72329 motelavigna.co "http://motelavigna.co/" "Mozilla/5.0 (X11; Linux x86_64) AppleWebKit/537.36 (KHTML, like Gecko) Chrome/63.0.3239.132 Safari/537.36" "-"
2a01:e34:edc9:bb10:34d3:72db:e92c:b1cd - - [03/Feb/2018:22:17:55 +0100] "GET /img/lonely.jpg HTTP/1.1" 200 7797 motelavigna.co "http://motelavigna.co/" "Mozilla/5.0 (X11; Linux x86_64) AppleWebKit/537.36 (KHTML, like Gecko) Chrome/63.0.3239.132 Safari/537.36" "-"
2a01:e34:edc9:bb10:34d3:72db:e92c:b1cd - - [03/Feb/2018:22:17:55 +0100] "GET /img/routard.jpg HTTP/1.1" 200 21901 motelavigna.co "http://motelavigna.co/" "Mozilla/5.0 (X11; Linux x86_64) AppleWebKit/537.36 (KHTML, like Gecko) Chrome/63.0.3239.132 Safari/537.36" "-"
2a01:e34:edc9:bb10:34d3:72db:e92c:b1cd - - [03/Feb/2018:22:17:55 +0100] "GET /noIndex/tripAdvisor.html HTTP/1.1" 200 1878 motelavigna.co "http://motelavigna.co/fr/home" "Mozilla/5.0 (X11; Linux x86_64) AppleWebKit/537.36 (KHTML, like Gecko) Chrome/63.0.3239.132 Safari/537.36" "-"
2a01:e34:edc9:bb10:34d3:72db:e92c:b1cd - - [03/Feb/2018:22:17:55 +0100] "GET /noIndex/map.html HTTP/1.1" 200 2219 motelavigna.co "http://motelavigna.co/fr/home" "Mozilla/5.0 (X11; Linux x86_64) AppleWebKit/537.36 (KHTML, like Gecko) Chrome/63.0.3239.132 Safari/537.36" "-"
2a01:e34:edc9:bb10:34d3:72db:e92c:b1cd - - [03/Feb/2018:22:17:56 +0100] "GET /img/qrcode.png HTTP/1.1" 200 396 motelavigna.co "http://motelavigna.co/noIndex/map.html" "Mozilla/5.0 (X11; Linux x86_64) AppleWebKit/537.36 (KHTML, like Gecko) Chrome/63.0.3239.132 Safari/537.36" "-"
2a01:e34:edc9:bb10:34d3:72db:e92c:b1cd - - [03/Feb/2018:22:17:57 +0100] "GET /img/favicon.png HTTP/1.1" 200 5612 motelavigna.co "http://motelavigna.co/fr/home" "Mozilla/5.0 (X11; Linux x86_64) AppleWebKit/537.36 (KHTML, like Gecko) Chrome/63.0.3239.132 Safari/537.36" "-"
2a01:e34:edc9:bb10:34d3:72db:e92c:b1cd - - [03/Feb/2018:22:18:36 +0100] "POST /fr/book HTTP/1.1" 200 4628 motelavigna.co "http://motelavigna.co/fr/home" "Mozilla/5.0 (X11; Linux x86_64) AppleWebKit/537.36 (KHTML, like Gecko) Chrome/63.0.3239.132 Safari/537.36" "-"
2a01:e34:edc9:bb10:34d3:72db:e92c:b1cd - - [03/Feb/2018:22:18:38 +0100] "POST /fr/activity HTTP/1.1" 200 13245 motelavigna.co "http://motelavigna.co/fr/book" "Mozilla/5.0 (X11; Linux x86_64) AppleWebKit/537.36 (KHTML, like Gecko) Chrome/63.0.3239.132 Safari/537.36" "-"
2a01:e34:edc9:bb10:34d3:72db:e92c:b1cd - - [03/Feb/2018:22:18:39 +0100] "GET /img/ancienFiltre1.jpg HTTP/1.1" 200 68507 motelavigna.co "http://motelavigna.co/fr/activity" "Mozilla/5.0 (X11; Linux x86_64) AppleWebKit/537.36 (KHTML, like Gecko) Chrome/63.0.3239.132 Safari/537.36" "-"
2a01:e34:edc9:bb10:34d3:72db:e92c:b1cd - - [03/Feb/2018:22:18:39 +0100] "GET /img/ancienFiltre2.jpg HTTP/1.1" 200 64751 motelavigna.co "http://motelavigna.co/fr/activity" "Mozilla/5.0 (X11; Linux x86_64) AppleWebKit/537.36 (KHTML, like Gecko) Chrome/63.0.3239.132 Safari/537.36" "-"
2a01:e34:edc9:bb10:34d3:72db:e92c:b1cd - - [03/Feb/2018:22:18:39 +0100] "GET /img/arche.jpg HTTP/1.1" 200 165454 motelavigna.co "http://motelavigna.co/fr/activity" "Mozilla/5.0 (X11; Linux x86_64) AppleWebKit/537.36 (KHTML, like Gecko) Chrome/63.0.3239.132 Safari/537.36" "-"
2a01:e34:edc9:bb10:34d3:72db:e92c:b1cd - - [03/Feb/2018:22:18:39 +0100] "GET /img/nino.jpg HTTP/1.1" 200 255606 motelavigna.co "http://motelavigna.co/fr/activity" "Mozilla/5.0 (X11; Linux x86_64) AppleWebKit/537.36 (KHTML, like Gecko) Chrome/63.0.3239.132 Safari/537.36" "-"
2a01:e34:edc9:bb10:34d3:72db:e92c:b1cd - - [03/Feb/2018:22:18:39 +0100] "GET /img/terraCorsa.jpg HTTP/1.1" 200 88183 motelavigna.co "http://motelavigna.co/fr/activity" "Mozilla/5.0 (X11; Linux x86_64) AppleWebKit/537.36 (KHTML, like Gecko) Chrome/63.0.3239.132 Safari/537.36" "-"
78.220.155.177 - - [03/Feb/2018:22:18:39 +0100] "GET /img/citadelle.jpg HTTP/1.1" 200 44312 motelavigna.co "http://motelavigna.co/fr/activity" "Mozilla/5.0 (X11; Linux x86_64) AppleWebKit/537.36 (KHTML, like Gecko) Chrome/63.0.3239.132 Safari/537.36" "-"
2a01:e34:edc9:bb10:34d3:72db:e92c:b1cd - - [03/Feb/2018:22:18:40 +0100] "POST /fr/book HTTP/1.1" 200 4628 motelavigna.co "http://motelavigna.co/fr/activity" "Mozilla/5.0 (X11; Linux x86_64) AppleWebKit/537.36 (KHTML, like Gecko) Chrome/63.0.3239.132 Safari/537.36" "-"
2a01:e34:edc9:bb10:34d3:72db:e92c:b1cd - - [03/Feb/2018:22:18:43 +0100] "POST /fr/home HTTP/1.1" 200 318608 motelavigna.co "http://motelavigna.co/fr/book" "Mozilla/5.0 (X11; Linux x86_64) AppleWebKit/537.36 (KHTML, like Gecko) Chrome/63.0.3239.132 Safari/537.36" "-"
2a01:e34:edc9:bb10:34d3:72db:e92c:b1cd - - [03/Feb/2018:22:18:52 +0100] "POST /fr/home HTTP/1.1" 200 318608 motelavigna.co "http://motelavigna.co/fr/home" "Mozilla/5.0 (X11; Linux x86_64) AppleWebKit/537.36 (KHTML, like Gecko) Chrome/63.0.3239.132 Safari/537.36" "-"
2a01:e34:edc9:bb10:34d3:72db:e92c:b1cd - - [03/Feb/2018:22:18:56 +0100] "GET /fr/home HTTP/1.1" 200 326818 motelavigna.co "-" "Mozilla/5.0 (X11; Linux x86_64) AppleWebKit/537.36 (KHTML, like Gecko) Chrome/63.0.3239.132 Safari/537.36" "-"
212.227.24.19 - - [03/Feb/2018:22:18:57 +0100] "GET /noIndex/dynamicJS.php/../Translation.json HTTP/1.1" 200 16664 motelavigna.co "-" "-" "-"
2a01:e34:edc9:bb10:34d3:72db:e92c:b1cd - - [03/Feb/2018:22:18:57 +0100] "GET /noIndex/dynamicJS.php HTTP/1.1" 200 16814 motelavigna.co "http://motelavigna.co/fr/home" "Mozilla/5.0 (X11; Linux x86_64) AppleWebKit/537.36 (KHTML, like Gecko) Chrome/63.0.3239.132 Safari/537.36" "-"
2a01:e34:edc9:bb10:34d3:72db:e92c:b1cd - - [03/Feb/2018:22:18:58 +0100] "GET /img/favicon.png HTTP/1.1" 200 5612 motelavigna.co "http://motelavigna.co/fr/home" "Mozilla/5.0 (X11; Linux x86_64) AppleWebKit/537.36 (KHTML, like Gecko) Chrome/63.0.3239.132 Safari/537.36" "-"
2a01:e34:edc9:bb10:34d3:72db:e92c:b1cd - - [03/Feb/2018:22:19:08 +0100] "POST /fr/book HTTP/1.1" 200 4628 motelavigna.co "http://motelavigna.co/fr/home" "Mozilla/5.0 (X11; Linux x86_64) AppleWebKit/537.36 (KHTML, like Gecko) Chrome/63.0.3239.132 Safari/537.36" "-"
2a01:e34:edc9:bb10:34d3:72db:e92c:b1cd - - [03/Feb/2018:22:19:14 +0100] "POST /fr/activity HTTP/1.1" 200 13245 motelavigna.co "http://motelavigna.co/fr/book" "Mozilla/5.0 (X11; Linux x86_64) AppleWebKit/537.36 (KHTML, like Gecko) Chrome/63.0.3239.132 Safari/537.36" "-"
2a01:e34:edc9:bb10:34d3:72db:e92c:b1cd - - [03/Feb/2018:22:19:23 +0100] "GET /fr/activity HTTP/1.1" 200 21479 motelavigna.co "-" "Mozilla/5.0 (X11; Linux x86_64) AppleWebKit/537.36 (KHTML, like Gecko) Chrome/63.0.3239.132 Safari/537.36" "-"
212.227.24.19 - - [03/Feb/2018:22:19:24 +0100] "GET /noIndex/dynamicJS.php/../Translation.json HTTP/1.1" 200 16664 motelavigna.co "-" "-" "-"
2a01:e34:edc9:bb10:34d3:72db:e92c:b1cd - - [03/Feb/2018:22:19:24 +0100] "GET /noIndex/dynamicJS.php HTTP/1.1" 200 16814 motelavigna.co "http://motelavigna.co/fr/activity" "Mozilla/5.0 (X11; Linux x86_64) AppleWebKit/537.36 (KHTML, like Gecko) Chrome/63.0.3239.132 Safari/537.36" "-"
2a01:e34:edc9:bb10:34d3:72db:e92c:b1cd - - [03/Feb/2018:22:19:25 +0100] "GET /img/favicon.png HTTP/1.1" 200 5612 motelavigna.co "http://motelavigna.co/fr/activity" "Mozilla/5.0 (X11; Linux x86_64) AppleWebKit/537.36 (KHTML, like Gecko) Chrome/63.0.3239.132 Safari/537.36" "-"
66.249.66.9 - - [03/Feb/2018:22:21:47 +0100] "GET / HTTP/1.1" 200 326834 motelavigna.co "-" "Mozilla/5.0 (Linux; Android 6.0.1; Nexus 5X Build/MMB29P) AppleWebKit/537.36 (KHTML, like Gecko) Chrome/41.0.2272.96 Mobile Safari/537.36 (compatible; Googlebot/2.1; +http://www.google.com/bot.html)" "-"
151.56.112.17 - - [03/Feb/2018:22:38:49 +0100] "GET /img/nino.jpg HTTP/1.1" 200 255606 motelavigna.co "-" "Mozilla/5.0 (Linux; Android 7.0; SM-A320FL Build/NRD90M; wv) AppleWebKit/537.36 (KHTML, like Gecko) Version/4.0 Chrome/58.0.3029.83 Mobile Safari/537.36 GSA/7.6.17.21.arm" "-"
